Place,Name,BirthDate,Sex,State,Division,Equipment,BodyweightKg,WeightClassKg,Squat1Kg,Squat2Kg,Squat3Kg,Best3SquatKg,Bench1Kg,Bench2Kg,Bench3Kg,Best3BenchKg,Deadlift1Kg,Deadlift2Kg,Deadlift3Kg,Best3DeadliftKg,TotalKg,Event
1,Angela Shin,,F,ON,Juniors,Raw,65.19,72,-112.5,120,130,130,42.5,-50,50,50,132.5,-140,-140,132.5,312.5,SBD
1,Trish Barbero,,F,ON,Open,Raw,51.57,52,95,102.5,107.5,107.5,55,60,62.5,62.5,130,137.5,145,145,315,SBD
1,Carolyn Tran,,F,ON,Open,Raw,55.99,57,120,125,-130,125,50,55,-60,55,125,135,140,140,320,SBD
2,Jessica Quijano,,F,ON,Open,Raw,53.16,57,75,80,85,85,40,45,-55,45,130,140,145,145,275,SBD
3,Chloe Banks,,F,ON,Open,Raw,55.58,57,75,82.5,-87.5,82.5,42.5,47.5,-52.5,47.5,82.5,90,92.5,92.5,222.5,SBD
1,Alexandra Sudlow,,F,ON,Open,Raw,70.4,72,117.5,125,127.5,127.5,55,-60,-60,55,132.5,140,150,150,332.5,SBD
2,Ali Mitchell,,F,ON,Open,Raw,71.41,72,92.5,107.5,-115,107.5,47.5,52.5,-57.5,52.5,95,110,-115,110,270,SBD
3,Leah Alcantara,,F,ON,Open,Raw,63.15,72,75,77.5,80,80,42.5,-45,-45,42.5,-100,-100,100,100,222.5,SBD
1,Avery Hughes,,F,ON,Open,Raw,75.86,84,90,97.5,102.5,102.5,55,57.5,-62.5,57.5,117.5,130,135,135,295,SBD
1,Laura Gazley,,F,ON,Masters 1,Raw,81.59,84,127.5,137.5,-142.5,137.5,60,67.5,-70,67.5,140,152.5,162.5,162.5,367.5,SBD
1,Dillon Kaufman,,M,ON,Sub-Juniors,Raw,103.2,105,147.5,155,167.5,167.5,-82.5,82.5,-90,82.5,145,150,165,165,415,SBD
1,Salman Hassan,,M,ON,Juniors,Raw,58.32,59,127.5,135,137.5,137.5,82.5,87.5,90,90,167.5,175,182.5,182.5,410,SBD
1,Daniel Gall,,M,ON,Juniors,Raw,64.92,66,137.5,145,-150,145,82.5,85,87.5,87.5,172.5,182.5,187.5,187.5,420,SBD
1,Ian Buck,,M,ON,Juniors,Raw,73.33,74,200,210,-220,210,117.5,122.5,132.5,132.5,235,247.5,265,265,607.5,SBD
2,Conal Nicholls,,M,ON,Juniors,Raw,73.78,74,215,-227.5,227.5,227.5,112.5,117.5,122.5,122.5,225,237.5,-250,237.5,587.5,SBD
3,Connor Droog,,M,ON,Juniors,Raw,73.73,74,190,202.5,210,210,115,122.5,125,125,202.5,-215,-215,202.5,537.5,SBD
4,Asad Jafri,,M,ON,Juniors,Raw,72.58,74,115,125,132.5,132.5,77.5,82.5,87.5,87.5,155,165,170,170,390,SBD
1,Dawson Peres,,M,ON,Juniors,Raw,81.58,83,215,227.5,-232.5,227.5,117.5,-125,-125,117.5,222.5,235,247.5,247.5,592.5,SBD
2,Cameron Buck,,M,ON,Juniors,Raw,81.53,83,180,190,197.5,197.5,100,-107.5,-107.5,100,210,220,227.5,227.5,525,SBD
3,Ajdin Ahmetovic,,M,ON,Juniors,Raw,81.14,83,175,185,190,190,107.5,115,120,120,185,195,207.5,207.5,517.5,SBD
4,Justin Quijano,,M,ON,Juniors,Raw,81.49,83,125,140,150,150,80,90,100,100,150,160,175,175,425,SBD
1,Ian Seguin,,M,ON,Juniors,Raw,92.06,93,270,283,-288,283,150,157.5,162.5,162.5,277.5,290,300,300,745.5,SBD
2,Ethan Keus,,M,ON,Juniors,Raw,92.32,93,205,215,222.5,222.5,145,152.5,-157.5,152.5,230,245,252.5,252.5,627.5,SBD
DQ,Kyle Salvanera,,M,ON,Juniors,Raw,99.09,105,157.5,-167.5,167.5,167.5,-120,-120,-120,,,,,,,SBD
1,Sam Youk,,M,ON,Open,Raw,72.75,74,170,180,200,200,135,-145,145,145,225,245,270,270,615,SBD
2,Jeff McLeod,,M,ON,Open,Raw,69.91,74,170,185,190,190,120,125,130,130,190,200,-210,200,520,SBD
3,Alexander Bachinski,,M,ON,Open,Raw,71.33,74,-160,172.5,-182.5,172.5,85,90,-97.5,90,192.5,202.5,-210,202.5,465,SBD
4,Tanner Mackenzie,,M,ON,Open,Raw,73.08,74,150,160,-170,160,100,105,-112.5,105,160,175,-185,175,440,SBD
1,Javier Diaz,,M,ON,Open,Raw,81.28,83,-172.5,175,187.5,187.5,112.5,120,125,125,202.5,220,227.5,227.5,540,SBD
2,Cameron Cochrane,,M,ON,Open,Raw,78.21,83,140,150,157.5,157.5,105,110,115,115,192.5,215,227.5,227.5,500,SBD
3,Ryan Mak,,M,ON,Open,Raw,79.04,83,107.5,130,137.5,137.5,80,90,97.5,97.5,165,182.5,195,195,430,SBD
1,Kyle Banks,,M,ON,Open,Raw,91.75,93,210,222.5,-225,222.5,130,135,-137.5,135,250,262.5,270,270,627.5,SBD
2,Torry Yaeger,,M,ON,Open,Raw,88.44,93,130,135,142.5,142.5,115,117.5,120,120,225,235,255,255,517.5,SBD
3,David Kovacs,,M,ON,Open,Raw,88.31,93,160,167.5,177.5,177.5,115,122.5,-127.5,122.5,182.5,197.5,205,205,505,SBD
1,Christopher Juman,,M,ON,Open,Raw,102.24,105,235,247.5,-260,247.5,145,152.5,160,160,260,275,290,290,697.5,SBD
2,Brad Fulton,,M,ON,Open,Raw,98.91,105,220,230,-240,230,140,145,-150,145,265,280,292.5,292.5,667.5,SBD
3,Kenneth Choi,,M,ON,Open,Raw,98.64,105,215,230,237.5,237.5,140,147.5,152.5,152.5,240,252.5,-265,252.5,642.5,SBD
4,David Jones,,M,ON,Open,Raw,98.33,105,205,-220,220,220,125,130,137.5,137.5,212.5,,,212.5,570,SBD
5,Josh Icay,,M,ON,Open,Raw,100.45,105,127.5,135,142.5,142.5,82.5,-90,-90,82.5,170,-180,-185,170,395,SBD
1,Philip Steeves,,M,ON,Masters 3,Raw,72.94,74,140,150,-152.5,150,107.5,112.5,115,115,190,200,-207.5,200,465,SBD
1,Kevin Grant-Hose,,M,ON,Masters 3,Raw,99.62,105,170,185,-192.5,185,82.5,95,105,105,170,185,195,195,485,SBD
1,Tim Hayes,,M,ON,Masters 3,Raw,113.47,120,110,120,132.5,132.5,72.5,77.5,-82.5,77.5,155,165,-182.5,165,375,SBD
1,Jack Taylor #1,,M,ON,Masters 4,Raw,92.29,93,125,135,145,145,75,82.5,-85,82.5,150,160,170,170,397.5,SBD
1,Erin Denton,,F,ON,Masters 1,Single-ply,81.8,84,90,102.5,117.5,117.5,85,92.5,100,100,90,110,115,115,332.5,SBD
