Name,Age,Sex,Equipment,Division,BodyweightKg,WeightClassKg,Squat1Kg,Squat2Kg,Squat3Kg,Best3SquatKg,Bench1Kg,Bench2Kg,Bench3Kg,Best3BenchKg,Deadlift1Kg,Deadlift2Kg,Deadlift3Kg,Best3DeadliftKg,TotalKg,Event,Place
Cathy Bruce,61,F,Raw,F_MR_5_CPF,73.6,75,67.5,72.5,77.5,77.5,35,40,-42.5,40,82.5,87.5,92.5,92.5,210,SBD,1
Anne Sorvari,45,F,Raw,F_MR_2_CPF,100.6,90+,105,-120,120,120,67.5,75,-85,75,125,132.5,140,140,335,SBD,1
Karyn Dumble,45,F,Raw,F_MR_2_CPF,57.9,60,55,60,65,65,37.5,42.5,-47.5,42.5,65,72.5,77.5,77.5,185,SBD,1
Danelys Sarmiento,43,F,Raw,F_MR_1_CPF,54.2,56,77.5,82.5,87.5,87.5,37.5,42.5,47.5,47.5,130,132.5,137.5,137.5,272.5,SBD,1
Holly Monster,41,F,Raw,F_MR_1_CPF,81.3,82.5,62.5,72.5,77.5,77.5,37.5,40,45,45,-95,95,107.5,107.5,230,SBD,1
Brittany Gregory,27,F,Wraps,F_OCR_CPF,89.2,90,117.5,-125,-125,117.5,65,75,-80,75,172.5,185,192.5,192.5,385,SBD,1
Samantha Bechard,,F,Raw,F_OR_CPF,59.1,60,160,170,172.5,172.5,105,112.5,115,115,177.5,187.5,195,195,482.5,SBD,1
Alora Griffiths,,F,Raw,F_OR_CPF,57.7,60,165,177.5,185,185,82.5,90,-95,90,185,190,195,195,470,SBD,1
Maureen Bornbaum,,F,Raw,F_OR_CPF,73.9,75,162.5,182.5,185,185,97.5,105,110,110,195,-215,215,215,510,SBD,1
Meana Franco,,F,Raw,F_OR_CPF,60,60,162.5,172.5,-182.5,172.5,100,105,-110,105,157.5,-167.5,-167.5,157.5,435,SBD,2
Sydney Johnson,,F,Raw,F_OR_CPF,55.9,56,95,107.5,115,115,50,55,57.5,57.5,142.5,155,165,165,337.5,SBD,1
Courtney Ustrzycki,,F,Raw,F_OR_CPF,51.5,52,92.5,95,97.5,97.5,-52.5,52.5,55,55,132.5,137.5,140,140,292.5,SBD,1
Kelly Onofre,,F,Raw,F_OR_CPF,74.4,75,115,122.5,127.5,127.5,62.5,67.5,-70,67.5,127.5,135,-137.5,135,330,SBD,2
Christina Richardson,,F,Raw,F_OR_CPF,126.1,90+,137.5,140,147.5,147.5,75,77.5,80,80,177.5,180,-182.5,180,407.5,SBD,1
Rebecca Hildyard,29,F,Raw,F_OR_CPF,58.3,60,75,82.5,-87.5,82.5,50,55,-57.5,55,105,115,-122.5,115,252.5,SBD,2
Amanda Spicer,23,F,Wraps,F_JCR_CPF,73.8,75,140,-145,-145,140,-70,70,-77.5,70,152.5,165,-182.5,165,375,SBD,1
Sadie Kopp-Duong,22,F,Wraps,F_JCR_CPF,71.1,75,102.5,115,-130,115,47.5,55,60,60,117.5,127.5,142.5,142.5,317.5,SBD,2
Rachel Katz,21,F,Raw,F_JR_CPF,57.5,60,72.5,77.5,82.5,82.5,35,37.5,42.5,42.5,90,97.5,105,105,230,SBD,1
Michael Milton,66,M,Raw,M_MR_6_CPF,79.9,82.5,142.5,-157.5,-157.5,142.5,,,,,,,,,,SBD,DQ
Chris Monster,51,M,Raw,M_MR_3_CPF,64,67.5,72.5,85,-90,85,47.5,52.5,57.5,57.5,122.5,132.5,142.5,142.5,285,SBD,1
James Lin,47,M,Wraps,M_MCR_2_CPF,78.8,82.5,130,-137.5,137.5,137.5,85,-92.5,92.5,92.5,150,165,175,175,405,SBD,1
Mark Sternberg,42,M,Raw,M_MR_1_CPF,74,75,125,132.5,-135,132.5,80,82.5,-85,82.5,157.5,170,180,180,395,SBD,1
Gregory Paterson,36,M,Wraps,M_SCR_CPF,124.3,125,250,265,275,275,137.5,147.5,150,150,250,265,275,275,700,SBD,1
John Wilson,39,M,Wraps,M_SCR_CPF,78.1,82.5,170,180,190,190,110,-117.5,-125,110,185,195,-215,195,495,SBD,1
Richard Therrien,25,M,Wraps,M_OCR_CPF,87.8,90,185,207.5,215,215,142.5,152.5,160,160,215,230,240,240,615,SBD,1
Jon Lister,26,M,Wraps,M_OCR_CPF,76.4,82.5,142.5,150,160,160,102.5,110,-115,110,175,182.5,190,190,460,SBD,1
Justin Zottl,,M,Wraps,M_OCR_CPF,116,125,327.5,350,365,365,195,215,-222.5,215,307.5,327.5,340,340,920,SBD,1
Mohamad Arnaout,,M,Wraps,M_OCR_CPF,92.2,100,270,300,315,315,180,197.5,-207.5,197.5,280,295,-305,295,807.5,SBD,1
Francesco Catalano,,M,Raw,M_OR_CPF,82,82.5,242.5,-265,265,265,172.5,182.5,187.5,187.5,262.5,-282.5,-282.5,262.5,715,SBD,1
Mark Hoover,,M,Raw,M_OR_CPF,74.3,75,185,207.5,,207.5,140,150,160,160,232.5,-257.5,257.5,257.5,625,SBD,1
Lance Lavallee,,M,Raw,M_OR_CPF,137.1,140,260,282.5,287.5,287.5,180,197.5,-210,197.5,300,322.5,-330,322.5,807.5,SBD,1
Kyle Marr,,M,Raw,M_OR_CPF,132.2,140,285,300,317.5,317.5,160,170,-172.5,170,290,-312.5,312.5,312.5,800,SBD,2
Granville Mayers,,M,Raw,M_OR_CPF,105.7,110,207.5,217.5,227.5,227.5,185,197.5,-210,197.5,285,295,-302.5,295,720,SBD,1
Zackary Parker,,M,Raw,M_OR_CPF,113.6,125,215,235,242.5,242.5,165,-172.5,-172.5,165,285,300,317.5,317.5,725,SBD,1
Adam Guida,,M,Raw,M_OR_CPF,98.8,100,250,-262.5,262.5,262.5,140,145,-150,145,250,275,-282.5,275,682.5,SBD,1
Andrew Kwon,28,M,Raw,M_OR_CPF,88.4,90,217.5,230,242.5,242.5,140,152.5,-160,152.5,225,235,250,250,645,SBD,1
Josh Brock,,M,Raw,M_OR_CPF,72.1,75,195,-202.5,-205,195,115,117.5,122.5,122.5,217.5,232.5,237.5,237.5,555,SBD,2
Tyrell Taylor,31,M,Raw,M_OR_CPF,86.5,90,137.5,150,-160,150,115,122.5,-140,122.5,225,240,245,245,517.5,SBD,2
Nick Zottl,31,M,Raw,M_OR_CPF,91.7,100,147.5,165,175,175,112.5,-127.5,127.5,127.5,177.5,195,205,205,507.5,SBD,2
Jarrad Blyth,30,M,Raw,M_OR_CPF,77.6,82.5,127.5,137.5,142.5,142.5,95,102.5,-110,102.5,185,195,205,205,450,SBD,3
Alex Chichelli,31,M,Raw,M_OR_CPF,78.9,82.5,127.5,132.5,137.5,137.5,107.5,112.5,122.5,122.5,172.5,182.5,192.5,192.5,452.5,SBD,2
Seth Albersworth,,M,Raw,M_OR_CPF,102.5,110,,,,,,,,,,,,,,SBD,DQ
Evan McVittie,22,M,Wraps,M_JCR_CPF,87.4,90,227.5,235,240,240,140,147.5,-152.5,147.5,220,230,235,235,622.5,SBD,1
Glen Robbins,22,M,Raw,M_JR_CPF,72.4,75,182.5,-185,185,185,120,-122.5,-122.5,120,180,185,190,190,495,SBD,1
Adam Katz,18,M,Raw,M_TR_3_CPF,89,90,150,160,165,165,115,122.5,-137.5,122.5,210,220,227.5,227.5,515,SBD,1
Robert Gott,20,M,Raw,M_JR_CPF,103,110,185,192.5,200,200,115,122.5,127.5,127.5,205,212.5,220,220,547.5,SBD,1
Curd Hos,,M,Raw,M_OR_CPF,173.6,140+,,,,,247.5,-260,-260,247.5,,,,,247.5,B,1
Clark Yeo,43,M,Raw,M_MR_1_CPF,66,67.5,,,,,92.5,102.5,110,110,,,,,110,B,1
Russel Taylor,46,M,Raw,M_MR_2_CPF,111.5,125,,,,,102.5,-110,110,110,142.5,150,157.5,157.5,267.5,BD,1
Kerry Hutchings,45,F,Raw,F_MR_2_CPF,75,75,,,,,52.5,57.5,-62.5,57.5,105,110,117.5,117.5,175,BD,1
