JapaneseName,Name,WeightClassKg,Sex,BodyweightKg,Bench1Kg,Bench2Kg,Bench3Kg,Best3BenchKg,TotalKg,BirthYear,Team,Division,Event,Equipment,Place
藤田 海斗,,53,M,52.15,75,80,-85,80,80,2001,浦和学院高校パワーリフティング部,Sub-Juniors,B,Raw,1
平山 秋繁,,53,M,53,75,80,-85,80,80,2001,厚木商業高校,Sub-Juniors,B,Raw,2
久米 亮平,Kume Ryohei,59,M,58.65,157.5,162.5,167.5,167.5,167.5,1988,S.O.L,Open,B,Raw,1
森木 翼,Tsubasa Moriki,59,M,58.05,150,160,165,165,165,1999,マッスルプロダクション,Juniors,B,Raw,1
井上 卓,,59,M,58.05,155,160,162.5,162.5,162.5,1985,個人,Open,B,Raw,2
小笠原 泰司,,59,M,56.35,155,160,-165,160,160,1972,パワーライン,Masters 1,B,Raw,1
野田 俊彦,Toshihiko Noda,59,M,58.85,152.5,-157.5,157.5,157.5,157.5,1979,パワーハウス,Masters 1,B,Raw,2
藤田 雄次,Yuji Fujita,59,M,57.15,150,155,-160,155,155,1984,ストロングライン,Open,B,Raw,3
村上 孝志,,59,M,58.7,145,155,-160,155,155,1984,B.P.S,Open,B,Raw,4
平柳 道彦,,59,M,57.65,137.5,142.5,145,145,145,1993,F.T GYM,Open,B,Raw,5
中田 和夫,Kazuo Nakata,59,M,58.55,135,142.5,-150,142.5,142.5,1967,K's GYM,Masters 2,B,Raw,2
岩田 和也,,59,M,58.75,125,-132.5,132.5,132.5,132.5,1992,THE STRONGEST WARRIORS,Open,B,Raw,6
端山 裕也,,59,M,57.4,120,125,130,130,130,1985,個人,Open,B,Raw,7
岩瀬 泰介,,59,M,58.1,125,130,-132.5,130,130,1988,帝京平成大学千葉ベンチプレスサークル,Open,B,Raw,8
吉野 公二,,59,M,58.45,122.5,-130,-130,122.5,122.5,1969,FITBULL,Masters 2,B,Raw,7
溝尾 元洋,,59,M,58.55,115,122.5,-130,122.5,122.5,1980,個人,Open,B,Raw,9
小畑 宏仁,,59,M,59,-122.5,122.5,-125,122.5,122.5,1979,和歌山県パワーリフティング協会,Masters 1,B,Raw,9
小笠原 兆志,,59,M,56.75,110,115,120,120,120,1995,個人,Open,B,Raw,10
平山 弘毅,,59,M,58.45,100,-110,-110,100,100,1985,パワーハウス,Open,B,Raw,11
芦刈 宣彦,,59,M,,,,,,,1979,トレーニングジム フリーウェイト,Masters 1,B,Raw,DQ
渡邉 将慶,,59,M,57.9,85,90,-95,90,90,2001,埼玉県立草加高等学校,Sub-Juniors,B,Raw,1
橋本 幹太,,59,M,58.65,115,120,-125,120,120,1999,帝京平成大学千葉ベンチプレスサークル,Juniors,B,Raw,2
内田 隼平,,59,M,58.1,107.5,112.5,-120,112.5,112.5,1996,個人,Juniors,B,Raw,3
佐野 智亮,,59,M,,,,,,,1997,個人,Juniors,B,Raw,DQ
堀越 政輝,,59,M,,,,,,,1996,帝京平成大学東京ベンチプレスサークル,Juniors,B,Raw,DQ
池田 尚也,Naoya Ikeda,59,M,58.8,130,140,-152.5,140,140,1970,三重県 個人,Masters 1,B,Raw,3
市川 満典,,59,M,53.55,125,130,-140,130,130,1974,湘南BP,Masters 1,B,Raw,4
原田 高志,,59,M,51.25,112.5,120,127.5,127.5,127.5,1979,BURST LIMIT,Masters 1,B,Raw,5
新井 秀典,,59,M,56.65,115,122.5,127.5,127.5,127.5,1970,ビッグタートル深谷,Masters 1,B,Raw,6
松本 宗晴,,59,M,58.6,110,120,127.5,127.5,127.5,1974,TEAM RED VOLTAGE,Masters 1,B,Raw,7
池村 正樹,,59,M,58.9,115,122.5,125,125,125,1974,三重県 個人,Masters 1,B,Raw,8
山村 敬幸,,59,M,58.6,105,110,115,115,115,1975,宮城県 仙台市体育館パワーリフティングクラブ,Masters 1,B,Raw,10
加納 勉,,59,M,58.65,90,-102.5,-102.5,90,90,1970,個人,Masters 1,B,Raw,11
高田 勇二,Yuji Takada,59,M,58.05,135,142.5,147.5,147.5,147.5,1965,湘南BP,Masters 2,B,Raw,1
堀田 剛正,,59,M,57.9,130,132.5,-135,132.5,132.5,1961,THE CHAMPIONS,Masters 2,B,Raw,3
坂上 忠雄,,59,M,56.5,125,-130,130,130,130,1965,神岡パワーリフティングクラブ,Masters 2,B,Raw,4
佐々木 敏則,,59,M,57.55,120,125,127.5,127.5,127.5,1967,岩手県 個人,Masters 2,B,Raw,5
水野 貴章,Takaaki Mizuno,59,M,58.65,120,125,-127.5,125,125,1967,ゴールドジム成田千葉,Masters 2,B,Raw,6
田中 祐一郎,,59,M,58.75,117.5,120,-122.5,120,120,1967,三重県 個人,Masters 2,B,Raw,8
大野 隆,,59,M,58.75,112.5,-120,120,120,120,1964,チームみそカツ,Masters 2,B,Raw,9
東 博志,,59,M,57.85,110,117.5,-120,117.5,117.5,1963,個人,Masters 2,B,Raw,10
岡本 敬弘,,59,M,57.2,110,112.5,-115,112.5,112.5,1969,サンプレイフィットネスセンター,Masters 2,B,Raw,11
外山 和彦,,59,M,57.85,107.5,110,112.5,112.5,112.5,1961,湘南ＢＰ,Masters 2,B,Raw,12
椎木 智良,,59,M,58.65,105,-112.5,112.5,112.5,112.5,1964,ストロングライン,Masters 2,B,Raw,13
亀田 司,,59,M,58.7,110,-117.5,-120,110,110,1961,チーム度肝,Masters 2,B,Raw,14
花田 典久,,59,M,58.5,100,-105,105,105,105,1969,新日鐵住金君津ボディビル同好会,Masters 2,B,Raw,15
松本 哲,,59,M,58.45,100,-112.5,-112.5,100,100,1968,パワーハウス,Masters 2,B,Raw,16
山岡 真也,,59,M,57.65,80,85,-90,85,85,1968,ACTOR,Masters 2,B,Raw,17
吉田 好邦,,59,M,,,,,,,1968,個人,Masters 2,B,Raw,DQ
卯津羅 光彦,,59,M,,,,,,,1962,個人,Masters 2,B,Raw,DQ
伊差川 浩之,Hiroyuki Isagawa,59,M,58.15,112.5,-117.5,117.5,117.5,117.5,1953,POWERSPORT,Masters 3,B,Raw,1
藤本 卓也,,59,M,57.95,107.5,110,-115,110,110,1958,横濱ベンチラバーズ,Masters 3,B,Raw,2
山本 大郎,,59,M,58.9,100,-105,107.5,107.5,107.5,1950,列剛河内,Masters 3,B,Raw,3
長澤 修一,,59,M,58,95,100,102.5,102.5,102.5,1956,横濱ベンチラバーズ,Masters 3,B,Raw,4
川上 京司,,59,M,56.85,95,100,-102.5,100,100,1950,個人,Masters 3,B,Raw,5
橋本 雅人,,59,M,58.9,92.5,95,97.5,97.5,97.5,1957,ショウワ パワークラブ,Masters 3,B,Raw,6
佐野 博,,59,M,57,90,95,-97.5,95,95,1950,横濱ベンチラバーズ,Masters 3,B,Raw,7
石渡 啓之,Hiroyuki Ishiwatari,59,M,57.25,-115,-115,-115,,,1959,パワーハウス,Masters 3,B,Raw,DQ
白川 猛士,Takeshi Shirakawa,59,M,57.2,110,-120.5,120.5,120.5,120.5,1948,香川県 個人,Masters 4,B,Raw,1
浜山 久雄,Hisao Hamayama,59,M,58.5,105,-110,-112.5,105,105,1947,新日鐵住金名古屋,Masters 4,B,Raw,2
信野 守彦,,59,M,54.85,-90,90,-100,90,90,1946,個人,Masters 4,B,Raw,3
竹井 保満,Yasumitsu Takei,59,M,57.4,55,60,-62.5,60,60,1928,烈剛河内,Masters 4,B,Raw,4
齊藤 敬太,Keita Seito,66,M,65.95,167.5,175,182.5,182.5,182.5,1982,BURST LIMIT,Open,B,Raw,1
福田 将志,Masashi Fukuda,66,M,66,162.5,170,-177.5,170,170,1984,ストロングライン,Open,B,Raw,2
山村 喜代将,,66,M,65.45,165,-170,-170,165,165,1991,チーム愛媛,Open,B,Raw,3
髙橋 勇二,,66,M,65.6,165,-172.5,-172.5,165,165,1983,帝京平成大学千葉ベンチプレスサークル,Open,B,Raw,4
土田 真臣,,66,M,64.4,162.5,-170,-175,162.5,162.5,1996,K's GYM,Juniors,B,Raw,1
木村 琢磨,,66,M,65.7,155,160,-162.5,160,160,1984,個人,Open,B,Raw,5
浅井 嵩文,,66,M,65.6,140,150,152.5,152.5,152.5,1987,Body Art Design,Open,B,Raw,6
古賀 翔太,,66,M,62.8,145,150,-155,150,150,1990,個人,Open,B,Raw,7
石田 宜央,,66,M,65.65,147.5,-152.5,-152.5,147.5,147.5,1980,大谷塾,Open,B,Raw,8
大場 隆俊,,66,M,65.3,145,-150,-150,145,145,1973,THE STRONGEST WARRIORS,Open,B,Raw,9
森 誠二,,66,M,65.55,130,140,-142.5,140,140,1980,山形県 個人,Open,B,Raw,10
徳丸 優,,66,M,65.85,120,125,132.5,132.5,132.5,1983,BURST LIMIT,Open,B,Raw,12
川上 薫寛,,66,M,65.05,117.5,122.5,125,125,125,1993,チームみそカツ,Open,B,Raw,13
佐藤 駿之介,,66,M,63.6,110,120,-125,120,120,1994,B.A.D.,Open,B,Raw,14
藤井 宏介,,66,M,65.5,120,-125,-127.5,120,120,1985,BTC,Open,B,Raw,15
亀谷 充男,,66,M,65.5,-157.5,-157.5,-157.5,,,1971,広島県 瀬野川トレーニングクラブ 失格,Masters 1,B,Raw,DQ
鈴木 康太,,66,M,65.35,-142.5,-142.5,-142.5,,,1982,THE CHAMPIONS,Open,B,Raw,DQ
本堂 正達,,66,M,65.4,-180,-180,-180,,,1995,個人,Open,B,Raw,DQ
宮田 匡人,,66,M,,,,,,,1981,フジモトジム,Open,B,Raw,DQ
石渡 汰成,,66,M,65.25,95,100,-110,100,100,2001,平塚湘風高等学校,Sub-Juniors,B,Raw,1
牛山 恭太,,66,M,65.7,140,145,-150,145,145,1997,ハイテク,Juniors,B,Raw,2
宮本 佳樹,,66,M,65.9,135,142.5,-147.5,142.5,142.5,1999,個人,Juniors,B,Raw,3
三井 靖也,,66,M,65.5,125,-135,135,135,135,1996,関東学連・国際武道大学,Juniors,B,Raw,4
鈴木 武虎,,66,M,65.8,127.5,-135,135,135,135,1999,ストロングライン,Juniors,B,Raw,5
菱沼 駿,,66,M,64.95,117.5,125,-130,125,125,1997,宮城県 仙台市体育館パワーリフティングクラブ,Juniors,B,Raw,6
松浦 一樹,,66,M,65.6,122.5,-130,-130,122.5,122.5,1998,帝京平成大学千葉ベンチプレスサークル,Juniors,B,Raw,7
名城 幸也,,66,M,66,110,115,-117.5,115,115,1996,ACTOR,Juniors,B,Raw,8
和田 幸大,,66,M,65.35,110,-115,-115,110,110,2000,ストロングライン,Juniors,B,Raw,9
川瀬 将之,,66,M,65.65,110,-115,-127.5,110,110,1997,8suki gym,Juniors,B,Raw,10
榎本 彪真,,66,M,64.4,100,-110,-110,100,100,2000,山口県 個人,Juniors,B,Raw,11
富岡 航,,66,M,,,,,,,1997,ハイテク,Juniors,B,Raw,DQ
澤木 勇佑,,66,M,,,,,,,1998,ハイテク,Juniors,B,Raw,DQ
仲真 良人,,66,M,64.45,155,-160,-160,155,155,1973,個人,Masters 1,B,Raw,1
兼上 頼正,,66,M,65.15,155,-160,-160,155,155,1972,Ｔｅａｍ Ｐｏｎｚｅ,Masters 1,B,Raw,2
小竹 謙司,,66,M,65.85,140,150,-152.5,150,150,1977,MAT,Masters 1,B,Raw,3
深河 正,,66,M,65,140,145,-147.5,145,145,1972,マッスルプロダクション,Masters 1,B,Raw,4
伊東 寛之,,66,M,65.55,142.5,-152.5,-152.5,142.5,142.5,1973,マッスルプロダクション,Masters 1,B,Raw,5
菅野 達也,,66,M,65,130,140,-142.5,140,140,1973,宮城県 仙台市体育館ＰＣ,Masters 1,B,Raw,6
湯山 聡,,66,M,65.25,130,140,-147.5,140,140,1977,チーム愛媛,Masters 1,B,Raw,7
渡辺 匡宏,,66,M,65.7,130,137.5,-142.5,137.5,137.5,1977,THE STRONGEST WARRIORS,Masters 1,B,Raw,8
伊藤 勉,,66,M,65.5,125,130,-132.5,130,130,1977,B.P.S,Masters 1,B,Raw,9
西村 卓,,66,M,65.55,122.5,127.5,130,130,130,1971,チームみそカツ,Masters 1,B,Raw,10
柘植 信人,,66,M,65.1,120,125,-132.5,125,125,1974,神岡パワーリフティングクラブ,Masters 1,B,Raw,11
中島 一彰,,66,M,64.15,115,120,-125,120,120,1976,三重県 個人,Masters 1,B,Raw,12
木村 淳,,66,M,65.4,110,120,-125,120,120,1971,トレーニングスタジオコア,Masters 1,B,Raw,13
河村 大三郎,,66,M,65,110,112.5,-115,112.5,112.5,1972,三重県 個人,Masters 1,B,Raw,14
森永 健,,66,M,65.5,100,107.5,-112.5,107.5,107.5,1975,タケイパワージム,Masters 1,B,Raw,15
森下 哲哉,,66,M,65.45,100,-110,-120,100,100,1971,三重県 個人,Masters 1,B,Raw,16
藤川 慶二,,66,M,65.85,100,-105,-105,100,100,1971,バリバリジム,Masters 1,B,Raw,17
カルロス 福田,,66,M,,,,,,,1972,Team Ponz,Masters 1,B,Raw,DQ
那須 野武文,,66,M,,,,,,,1973,個人,Masters 1,B,Raw,DQ
仲間 勇人,,66,M,65.6,135,140,-145,140,140,1968,TEAM GUTEI,Masters 2,B,Raw,1
中山 久幸,Hisayuki Nakayama,66,M,63.5,125,135,-145,135,135,1963,ノーリミッツ,Masters 2,B,Raw,2
九野 毅,,66,M,65.65,130,132.5,-135,132.5,132.5,1968,PEACE GYM,Masters 2,B,Raw,3
長瀬 祐司,,66,M,65.15,130,-135,-135,130,130,1964,個人,Masters 2,B,Raw,4
川浦 幸次,,66,M,65.5,117.5,-125,125,125,125,1964,WTC藤井寺,Masters 2,B,Raw,5
池上 範雄,,66,M,65.9,120,125,-127.5,125,125,1963,兵庫県パワーリフティング個人選手会,Masters 2,B,Raw,6
池上 健,,66,M,64.45,112.5,115,-120,115,115,1961,サンプレイフィットネスセンター,Masters 2,B,Raw,7
市原 真史,,66,M,64.8,100,110,-115,110,110,1966,k's GYM,Masters 2,B,Raw,8
畦間 義則,,66,M,64.4,-105,-105,105,105,105,1969,個人,Masters 2,B,Raw,9
成澤 真一,,66,M,64.6,-122.5,-122.5,-122.5,,,1965,個人,Masters 2,B,Raw,DQ
吉留 慎一,,66,M,64,-130,130,137.5,137.5,137.5,1957,個人,Masters 3,B,Raw,1
外山 尚人,,66,M,65.15,135,-137.5,137.5,137.5,137.5,1959,湘南BP,Masters 3,B,Raw,2
辻 安彦,,66,M,64.5,-130,130,135,135,135,1957,マッスルプロダクション Masters 3,Open,B,Raw,11
大村 茂則,,66,M,65.35,125,130,135,135,135,1959,個人,Masters 3,B,Raw,3
佐藤 恵二,Keiji Sato,66,M,65.9,132.5,-137.5,-137.5,132.5,132.5,1952,京都府 京都パワーリフティングクラブ,Masters 3,B,Raw,4
三木 浩史,Hiroshi Miki,66,M,64,120,125,-132.5,125,125,1957,フジモトジム,Masters 3,B,Raw,5
鈴木 光,,66,M,64.5,120,125,-130,125,125,1959,個人,Masters 3,B,Raw,6
李 炳八,,66,M,65.25,110,115,120,120,120,1958,茨城県 水戸パワーリフティング協会,Masters 3,B,Raw,7
鳥丸 登,,66,M,63.15,100,102.5,-105,102.5,102.5,1953,個人,Masters 3,B,Raw,8
井波 栄治,,66,M,65.85,90,95,102.5,102.5,102.5,1951,BURST LIMIT,Masters 3,B,Raw,9
関根 隆信,,66,M,,,,,,,1955,ストロングライン,Masters 3,B,Raw,DQ
保富 泰人,,66,M,64.95,100,107.5,-112.5,107.5,107.5,1949,和歌山県パワーリフティング協会 Masters 4,Open,B,Raw,16
新田 幸治,,66,M,64.05,100,-105,105,105,105,1947,WTC 藤井寺,Masters 4,B,Raw,1
宇谷 正紀,,66,M,63.1,95,100,102.5,102.5,102.5,1948,フジモトアキオジム Masters 4,Open,B,Raw,17
小山 義雄,,66,M,65.25,70,75,-77.5,75,75,1937,越谷市民プール トレーニングジム Masters 4,Open,B,Raw,18
餅野 法善,,66,M,65.05,-45,45,-50,45,45,1941,スマイルクラブ,Masters 4,B,Raw,2
佃 忠和,Tadakazu Tsukuda,66,M,63.9,-102.5,-102.5,-102.5,,,1944,横浜ベンチラバーズ Masters 4,Open,B,Raw,DQ
児玉 大紀,Daiki Kodama,74,M,71.95,187.5,195,-210,195,195,1979,K's GYM,Masters 1,B,Raw,1
臼木 翔吾,,74,M,72.5,175,182.5,-207.5,182.5,182.5,1992,マッスルプロダクション,Open,B,Raw,1
染谷 成亮,,74,M,73.35,170,180,-182.5,180,180,1985,KING BULL,Open,B,Raw,2
武井 風,,74,M,67.5,160,-170,175,175,175,1992,福井県 タケイパワージム,Open,B,Raw,3
京光 一平,,74,M,73.5,170,175,-182.5,175,175,1981,フジモトジム,Open,B,Raw,4
福田 忠浩,,74,M,73.5,165,175,-182.5,175,175,1996,マッスルプロダクション,Juniors,B,Raw,1
松本 健一郎,Kenichiro Matsumoto,74,M,72.85,170,172.5,-177.5,172.5,172.5,1975,個人,Masters 1,B,Raw,2
石井 尚紀,,74,M,70.15,165,170,-175,170,170,1995,B.A.D,Open,B,Raw,5
古川 琢真,,74,M,72.85,150,-167.5,167.5,167.5,167.5,1993,THE STRONGEST WARRIORS,Open,B,Raw,6
川崎 勇斗,,74,M,72.45,155,160,165,165,165,1988,チーム愛媛,Open,B,Raw,7
酒井 ジュンヤ,,74,M,72.4,155,160,-167.5,160,160,1970,バリバリジム,Masters 1,B,Raw,4
村山 正晃,,74,M,73.25,140,150,155,155,155,1987,個人,Open,B,Raw,9
山下 恭平,,74,M,72.95,140,147.5,-150,147.5,147.5,1993,ゴールドジム名古屋金山,Open,B,Raw,11
茎田 貴澄,,74,M,72.35,135,142.5,-145,142.5,142.5,1993,パワーハウス,Open,B,Raw,13
高橋 優太,,74,M,73.55,127.5,135,142.5,142.5,142.5,1995,ストロングライン,Open,B,Raw,14
松本 裕也,,74,M,72.9,130,135,-140,135,135,1993,K's GYM,Open,B,Raw,17
二宮 拓也,,74,M,73.4,130,135,-140,135,135,1988,ACTOR (アクター),Open,B,Raw,18
福嶋 勇二,,74,M,72.4,130,-135,-135,130,130,1986,個人,Open,B,Raw,19
福庭 健司,,74,M,68.6,120,-127.5,127.5,127.5,127.5,1990,個人,Open,B,Raw,20
横山 太朗,,74,M,73.3,120,125,-132.5,125,125,1990,ストロングライン,Open,B,Raw,21
榎宮 伸幸,,74,M,73.35,120,125,-130,125,125,1990,Team BULL,Open,B,Raw,22
水上 雄亮,,74,M,72.75,-120,120,122.5,122.5,122.5,1980,個人,Open,B,Raw,24
若林 康平,,74,M,73.05,-122.5,122.5,-127.5,122.5,122.5,1994,関西大学S&Cクラブ,Open,B,Raw,25
加藤 純介,,74,M,73.95,-127.5,-127.5,-127.5,,,1990,個人,Open,B,Raw,DQ
野村 晃史,,74,M,,,,,,,1979,ストロングライン,Masters 1,B,Raw,DQ
杉中 一輝,,74,M,72.1,150,160,167.5,167.5,167.5,1999,三重県 桑名体育館TC,Juniors,B,Raw,2
八巻 拓未,,74,M,73.55,150,160,-170,160,160,1997,個人,Juniors,B,Raw,3
岡本 悠,,74,M,73.2,140,150,-155,150,150,1996,B.A.D.,Juniors,B,Raw,4
田本 廉,,74,M,71.9,135,-140,140,140,140,1998,K's GYM 横浜,Juniors,B,Raw,5
籠瀬 怜威,,74,M,67.55,130,-135,-135,130,130,1999,K's GYM,Juniors,B,Raw,6
重松 慧哉,,74,M,71.6,125,130,-137.5,130,130,1998,BEASTGYM,Juniors,B,Raw,7
中西 雄哉,,74,M,73.65,120,127.5,-135,127.5,127.5,1997,帝京平成大学千葉ベンチプレスサークル,Juniors,B,Raw,8
市村 慎吾,,74,M,72.5,115,-120,120,120,120,1997,帝京平成大学千葉ベンチプレスサークル,Juniors,B,Raw,9
春田 秀匡,,74,M,71.55,115,-122.5,-125,115,115,1997,Black ship,Juniors,B,Raw,10
守山 哲郎,,74,M,73.25,167.5,-170,-170,167.5,167.5,1971,MAT,Masters 1,B,Raw,3
松山 聡,,74,M,73.35,155,165,-170,165,165,1972,TEAM I-CHIB-N Masters 1,Open,B,Raw,8
松尾 有一,,74,M,72.4,145,155,157.5,157.5,157.5,1973,PEACE GYM,Masters 1,B,Raw,5
砂田 恭秀,,74,M,72.45,145,150,-157.5,150,150,1977,BTC,Masters 1,B,Raw,6
藤本 善一,,74,M,73.85,150,-157.5,-157.5,150,150,1974,三重県 個人,Masters 1,B,Raw,7
渡辺 孝治郎,,74,M,73.05,-140,-140,140,140,140,1972,BTC,Masters 1,B,Raw,8
行本 幸生,,74,M,73.15,127.5,132.5,135,135,135,1970,個人,Masters 1,B,Raw,9
川崎 昌巳,,74,M,73.1,125,130,-135,130,130,1977,PEACE GYM,Masters 1,B,Raw,10
加藤 隆之,,74,M,73.2,125,130,-137.5,130,130,1971,STC,Masters 1,B,Raw,11
山本 雄一郎,,74,M,72.55,125,-132.5,-132.5,125,125,1977,個人,Masters 1,B,Raw,12
内田 雅之,,74,M,73,115,120,125,125,125,1975,苫小牧マッスルクラブ Masters 1,Open,B,Raw,23
小林 厚志,,74,M,70.85,110,120,-125,120,120,1974,BAD,Masters 1,B,Raw,13
福留 健治,,74,M,73.2,-120,120,-125,120,120,1972,香川県 個人,Masters 1,B,Raw,14
唐澤 仁,,74,M,73.65,115,120,-122.5,120,120,1972,サンプレイフィットネスセンター,Masters 1,B,Raw,15
山﨑 康博,,74,M,72.9,-122.5,-122.5,-122.5,,,1973,STC,Masters 1,B,Raw,DQ
松岡 紀佳,,74,M,,,,,,,1971,K's GYM 横浜,Masters 1,B,Raw,DQ
安田 和臣,,74,M,,,,,,,1976,新日鐵住金君津ボディビル同好会,Masters 1,B,Raw,DQ
藤川 慎吾,,74,M,72.45,160,170.5,172.5,172.5,172.5,1967,湘南BP,Masters 2,B,Raw,1
林 健一郎,,74,M,72.3,145,150,152.5,152.5,152.5,1967,山口県 個人,Masters 2,B,Raw,2
井出 光弘,,74,M,73.35,145,150,-152.5,150,150,1961,F.T GYM,Masters 2,B,Raw,3
倉光 明人,,74,M,72.2,-145,145,-150,145,145,1961,B.P.S,Masters 2,B,Raw,4
鶴田 一,,74,M,73.8,-137.5,-140,142.5,142.5,142.5,1962,宮城県 THE ZEN CLUB K＆B GYM Masters 2,Open,B,Raw,15
河野 儀久,,74,M,72.25,130,-135,135,135,135,1968,岡山県 個人,Masters 2,B,Raw,5
根岸 宏昭,,74,M,73.3,127.5,132.5,-135,132.5,132.5,1968,湘南BP,Masters 2,B,Raw,6
朝井 章生,,74,M,73.55,125,132.5,-135,132.5,132.5,1968,サンプレイフィットネスセンター,Masters 2,B,Raw,7
二反田 豊和,,74,M,72.15,-130,130,-135,130,130,1968,STC,Masters 2,B,Raw,8
油井 弘光,,74,M,73.3,120,125,130,130,130,1964,クラブ ポイズン,Masters 2,B,Raw,9
田中 博文,,74,M,70.55,-105,105,115,115,115,1962,シロクマパワージム Masters 2,Open,B,Raw,27
幸田 有司,,74,M,72.95,115,-117.5,-117.5,115,115,1968,FREE WEIGHT GYM Masters 2,Open,B,Raw,28
浦田 繁男,,74,M,70.3,105,110,-115,110,110,1962,LAKE SIDE POWER Masters 2,Open,B,Raw,29
稲葉 俊幸,,74,M,73.05,110,-115,-115,110,110,1961,個人,Masters 2,B,Raw,10
右川 浩正,,74,M,70.6,102.5,-107.5,107.5,107.5,107.5,1969,マッスルプロダクション Masters 2,Open,B,Raw,30
林 英生,,74,M,71.1,90,102.5,-105,102.5,102.5,1961,三重県 個人,Masters 2,B,Raw,11
碇 正一朗,,74,M,72.25,-102.5,-102.5,102.5,102.5,102.5,1961,個人,Masters 2,B,Raw,12
尾崎 洋,,74,M,72.9,-142.5,-142.5,-142.5,,,1965,B.P.S,Masters 2,B,Raw,DQ
森田 俊介,,74,M,,,,,,,1967,グッドコンディション Masters 2,Open,B,Raw,DQ
石渡 敬一郎,,74,M,73.25,142.5,148.5,-150.5,148.5,148.5,1951,チトフナ パワークラブ Masters 3,Open,B,Raw,10
渡辺 進,,74,M,73.3,140,145,-149,145,145,1953,新潟県 五泉フィットネスクラブ Masters 3,Open,B,Raw,12
川原 裕三,,74,M,72,135,140,-149,140,140,1958,苫小牧マッスルクラブ Masters 3,Open,B,Raw,16
大谷 重司,,74,M,73.45,135,140,-149,140,140,1957,パワーハウス,Masters 3,B,Raw,1
古田 晴彦,,74,M,70.85,127.5,132.5,135,135,135,1959,マグナムフィットネスセンター,Masters 3,B,Raw,2
平井 一雄,,74,M,71.95,135,-140,-140,135,135,1957,湘南BP,Masters 3,B,Raw,3
井伊 満,,74,M,72.6,120,125,-130,125,125,1958,フジモトジム,Masters 3,B,Raw,4
田中 光章,,74,M,73.35,115,125,-132.5,125,125,1953,B.P.S,Masters 3,B,Raw,5
大村 和久,,74,M,71.6,115,120,122.5,122.5,122.5,1956,トヨタ自動車(株)ボディビル部,Masters 3,B,Raw,6
下山 洋二,,74,M,71.85,110,117.5,-122.5,117.5,117.5,1951,横濱ベンチラバーズ Masters 3,Open,B,Raw,26
勝又 秀夫,,74,M,71.6,-90,90,95,95,95,1950,ストロングライン,Masters 3,B,Raw,7
鷹野 和美,,74,M,72.2,80,85,-90,85,85,1957,Ｉ．Ｗ．ＧＧ,Masters 3,B,Raw,8
林 靖弘,,74,M,73.1,-140,-145,-149,,,1956,石川県 マッスルプロダクション石川,Masters 3,B,Raw,DQ
山本 茂樹,Shigeki Yamamoto,74,M,72.1,117.5,122.5,127.5,127.5,127.5,1943,ストロングライン,Masters 4,B,Raw,1
諸星 孝夫,,74,M,72.9,105,110,-117.5,110,110,1945,湘南BP,Masters 4,B,Raw,2
三木 宣彦,,74,M,72.7,90,-95,95,95,95,1939,チトフナ パワークラブ Masters 4,Open,B,Raw,31
藤田 俊夫,,74,M,72.05,90,92.5,-95,92.5,92.5,1935,和歌山県パワーリフティング協会,Masters 4,B,Raw,3
照井 清,,74,M,68.8,82.5,87.5,-90,87.5,87.5,1941,個人,Masters 4,B,Raw,4
市川 勞,,74,M,,,,,,,1947,個人,Masters 4,B,Raw,DQ
鈴木 佑輔,Yusuke Suzuki,83,M,79.65,205,215,-227,215,215,1984,B.A.D.,Open,B,Raw,1
大室 豪槻,Goki Omuro,83,M,79.6,192.5,202.5,205,205,205,1993,K's GYM,Open,B,Raw,2
福島 勇輝,Yuki Fukushima,83,M,81.6,192.5,-202.5,-205,192.5,192.5,1986,F. T GYM,Open,B,Raw,3
窪田 公輝,,83,M,82.45,175,182.5,187.5,187.5,187.5,1992,個人,Open,B,Raw,4
浦野 雄一,,83,M,81.95,170,180,185,185,185,1987,ハマ スポーツジム,Open,B,Raw,5
三輪 景吾,,83,M,82.7,185,-195,-195,185,185,1981,東名アスレチック,Open,B,Raw,6
高橋 真一郎,,83,M,82.1,180,-187.5,-187.5,180,180,1979,個人,Masters 1,B,Raw,2
菊地 洋介,,83,M,82.15,170,180,-185,180,180,1995,K's GYM 横浜,Open,B,Raw,8
山田 賢,,83,M,82.4,155,162.5,170,170,170,1992,B.A.D.,Open,B,Raw,10
林 克也,,83,M,82.9,170,-175,-182.5,170,170,1987,K's GYM,Open,B,Raw,11
亀田 孝典,,83,M,82.7,160,162.5,-170,162.5,162.5,1987,K's GYM 横浜,Open,B,Raw,13
向井 幹,,83,M,80.95,150,155,-160,155,155,1995,BEAST GYM,Open,B,Raw,15
矢野 太紀,,83,M,82.05,145,152.5,-157.5,152.5,152.5,1989,元気クラブ,Open,B,Raw,16
石崎 竜海,,83,M,79.75,145,150,-160,150,150,1997,山口県 個人,Juniors,B,Raw,5
村上 貴信,,83,M,81.2,145,150,-152.5,150,150,1989,チーム愛媛,Open,B,Raw,17
磯見 嘉一,,83,M,81.15,140,147.5,-150,147.5,147.5,1973,個人,Masters 1,B,Raw,10
平井 優舟,,83,M,81.35,140,145,147.5,147.5,147.5,1991,個人,Open,B,Raw,19
光末 仁大,,83,M,82.1,-170,-170,-170,,,1972,個人,Masters 1,B,Raw,DQ
丹羽 由起,,83,M,82.4,-185,-185,-185,,,1987,個人,Open,B,Raw,DQ
鈴木 孝英,,83,M,,,,,,,1981,福島県 ゴールドジムEXPRESS郡山 一般,Open,B,Raw,DQ
富田 慎之介,,83,M,82.9,137.5,145,151,151,151,2001,浦和学院高校パワーリフティング部,Sub-Juniors,B,Raw,1
後藤 優誠,,83,M,80.8,137.5,142.5,-151,142.5,142.5,2002,広島県 瀬野川トレーニングクラブ Sub-Juniors,Open,B,Raw,22
大堂 琉斗,,83,M,81.1,112.5,120,127.5,127.5,127.5,2001,個人,Sub-Juniors,B,Raw,2
西村 将汰,,83,M,82.55,175,-180,180,180,180,1999,個人,Juniors,B,Raw,1
岡野 太郎,,83,M,82.65,170,-175,175,175,175,1997,東京農業大学,Juniors,B,Raw,2
景井 勇斗,,83,M,81.75,-165,-165,165,165,165,1995,CLUB POISON,Juniors,B,Raw,3
佐藤 亮太,,83,M,80.9,152.5,160,-167.5,160,160,1996,ノーリミッツ,Juniors,B,Raw,4
瀬谷 有希,,83,M,82,130,-140,-140,130,130,1996,個人,Juniors,B,Raw,6
古布 紘太郎,,83,M,,,,,,,1997,マッスルプロダクション Juniors,Open,B,Raw,DQ
佐久間 直哉,,83,M,,,,,,,2000,ストロングライン,Juniors,B,Raw,DQ
酒井 康行,Yasuyuki Sakai,83,M,82.8,177.5,-185,187.5,187.5,187.5,1973,フジモトジム,Masters 1,B,Raw,1
高取 征爾,,83,M,82.75,182.5,-187.5,-187.5,182.5,182.5,1975,ゴールドジム名古屋金山 Masters 1,Open,B,Raw,7
清水 達也,,83,M,82.1,170,180,-185,180,180,1971,サン笠寺,Masters 1,B,Raw,3
安江 三千夫,,83,M,82.2,180,-185,-185,180,180,1970,THE STRONGEST WARRIORS Masters 1,Open,B,Raw,9
久保田 淳,,83,M,82.5,172.5,177.5,-180,177.5,177.5,1976,個人,Masters 1,B,Raw,4
齋藤 大介,,83,M,82.7,160,-165,-165,160,160,1970,TETSUBEYA,Masters 1,B,Raw,5
渡邊 勝也,,83,M,82.75,150,155,160,160,160,1973,TXP,Masters 1,B,Raw,6
内堀 健太,,83,M,81.95,152.5,-157.5,-157.5,152.5,152.5,1975,個人,Masters 1,B,Raw,7
増山 雄一,,83,M,82.45,140,-150,152.5,152.5,152.5,1972,山口県 個人,Masters 1,B,Raw,8
柚木 誠,,83,M,81.6,150,-160,-160,150,150,1976,マッスルプロダクション Masters 1,Open,B,Raw,18
黒木 幸二,,83,M,81.8,140,150,-155,150,150,1970,トレーニングジムフリーウエイト,Masters 1,B,Raw,9
尾嶋 裕,,83,M,81.65,-140,145,-147.5,145,145,1973,個人,Masters 1,B,Raw,11
田村 覚,,83,M,80.55,-140,140,-142.5,140,140,1969,個人,Masters 1,B,Raw,12
早川 剛史,,83,M,82.6,130,135,137.5,137.5,137.5,1970,個人,Masters 1,B,Raw,13
鈴木 博達,,83,M,82.75,130,137.5,-140,137.5,137.5,1974,パワーハウス,Masters 1,B,Raw,14
紺野 仁教,,83,M,80.7,130,135,-140,135,135,1972,STC,Masters 1,B,Raw,15
金光 忠実,,83,M,82.4,125,135,-137.5,135,135,1975,個人,Masters 1,B,Raw,16
堀川 哲,,83,M,81.1,125,127.5,130,130,130,1975,ストロングライン,Masters 1,B,Raw,17
福岡 一平,,83,M,82.1,125,130,-135,130,130,1975,8sukigym,Masters 1,B,Raw,18
塩谷 勝也,,83,M,82.3,-130,130,-135,130,130,1974,ゴールドジム梅田大阪 Masters 1,Open,B,Raw,24
飯塚 隼弘,,83,M,80.9,115,120,-127.5,120,120,1978,TXP,Masters 1,B,Raw,19
根本 裕徳,,83,M,,,,,,,1971,ストロングライン,Masters 1,B,Raw,DQ
坂本 勝典,,83,M,80.75,170,176,-182.5,176,176,1968,MPC,Masters 2,B,Raw,1
山下 卓也,,83,M,81.55,150,160,165,165,165,1968,K's GYM,Masters 2,B,Raw,2
秋本 博則,,83,M,82.15,155,160,165,165,165,1969,広島県 個人,Masters 2,B,Raw,3
小島 勝信,,83,M,82.4,160,-165,-165,160,160,1966,THE CHAMPIONS Masters 2,Open,B,Raw,14
飯干 信二,,83,M,79.6,142.5,150,-155,150,150,1964,B.P.S,Masters 2,B,Raw,4
伊藤 卓,,83,M,80.55,145,-150,-150,145,145,1963,兵庫PL選手会,Masters 2,B,Raw,5
髙橋 長治,,83,M,80.85,140,145,-150,145,145,1961,新日鐵住金君津ボディビル同好会 Masters 2,Open,B,Raw,20
谷田 真,,83,M,78.75,135,140,142.5,142.5,142.5,1962,ストロングライン,Masters 2,B,Raw,6
山根 淳,,83,M,79.95,-142.5,142.5,-150,142.5,142.5,1965,リコーパワーリフティング部,Masters 2,B,Raw,7
赤司 正仁,,83,M,81.7,140,-150,-150,140,140,1963,個人,Masters 2,B,Raw,8
小倉 正樹,,83,M,81.9,135,140,-142.5,140,140,1966,ストロングライン,Masters 2,B,Raw,9
澤野 裕一,,83,M,80,120,127.5,-132.5,127.5,127.5,1967,FREE WEIGHT GYM Masters 2,Open,B,Raw,26
小野 田学,,83,M,80.95,-120,122.5,-130,122.5,122.5,1968,個人,Masters 2,B,Raw,10
池田 栄治,,83,M,81.45,-122.5,122.5,-130,122.5,122.5,1968,個人,Masters 2,B,Raw,11
安江 宏昭,,83,M,81.9,110,112.5,-115,112.5,112.5,1969,PEACE GYM,Masters 2,B,Raw,12
岡本 弘行,,83,M,82.3,100,-107.5,107.5,107.5,107.5,1969,個人,Masters 2,B,Raw,13
軽部 敏浩,,83,M,,,,,,,1965,港腕パワークラブ,Masters 2,B,Raw,DQ
猪須 純一,,83,M,81.7,157.5,166,-170,166,166,1954,トレーニングジムフリーウエイト Masters 3,Open,B,Raw,12
飯島 修,,83,M,81.4,145,147.5,-150,147.5,147.5,1954,大谷塾,Masters 3,B,Raw,1
信原 英之,,83,M,79.15,140,145,-150,145,145,1952,パワーハウス赤穂 Masters 3,Open,B,Raw,21
大谷 進,Susumi Otani,83,M,81.45,135,145,-150,145,145,1952,大谷塾,Masters 3,B,Raw,2
井上 謙一,,83,M,79.9,-130,135,-142.5,135,135,1957,個人,Masters 3,B,Raw,3
南正覚 雅士,,83,M,77.6,130,-137.5,-137.5,130,130,1956,トレーニングジムフリーウエイト Masters 3,Open,B,Raw,25
伊藤 順三,,83,M,78,122.5,-130,130,130,130,1954,個人,Masters 3,B,Raw,4
古川 満明,,83,M,82.25,87.5,95,-100,95,95,1959,ストロングライン,Masters 3,B,Raw,5
今泉 春樹,Haruki Imaizumi,83,M,81.5,130,136.5,140,140,140,1947,大谷塾,Masters 4,B,Raw,1
飯田 康士,Yasushi Iida,83,M,81.75,130,136,-137,136,136,1943,マッスルプロダクション Masters 4,Open,B,Raw,23
藤本 章夫,,83,M,79.45,105,110,,110,110,1949,フジモトジム,Masters 4,B,Raw,2
小作 力雄,,83,M,80,95,-100,100,100,100,1946,パワーハウス,Masters 4,B,Raw,3
齋藤 学,,93,M,91.9,195,205,210,210,210,1981,苫小牧マッスルクラブ 一般,Open,B,Raw,1
長谷川 直輝,Naoki Hasegawa,93,M,92.7,200,-207.5,-210,200,200,1992,K'sGYM横浜,Open,B,Raw,2
綿島 啓晃,,93,M,90.6,190,-195,-200,190,190,1992,Strength Gym Tokyo Bay 一般,Open,B,Raw,3
吉川 望,Nozomu Yoshikawa,93,M,89.5,175,180,182.5,182.5,182.5,1986,K’s GYM,Open,B,Raw,4
武田 宗久,,93,M,92.25,180,182.5,-192.5,182.5,182.5,1978,個人,Masters 1,B,Raw,1
梁本 智弘,,93,M,92.3,170,177.5,182.5,182.5,182.5,1986,K’s GYM,Open,B,Raw,5
松永 浩二,,93,M,88,160,175,180,180,180,1983,個人,Open,B,Raw,6
義田 大峰,,93,M,91.8,170,180,-185,180,180,1988,TXP,Open,B,Raw,7
高木 啓樹,,93,M,91.95,157.5,170,177.5,177.5,177.5,1981,ストロングライン,Open,B,Raw,9
増子 裕馬,,93,M,92.15,170,177.5,-182.5,177.5,177.5,1989,TXP,Open,B,Raw,10
松尾 賢太朗,,93,M,86,165,170,172.5,172.5,172.5,1989,筋トレクラブまっちゃん 一般,Open,B,Raw,11
中瀬 健太郎,,93,M,92.35,160,172.5,-180,172.5,172.5,1995,昭和SC,Open,B,Raw,12
村上 恵造,,93,M,90.3,170,-180,-182.5,170,170,1973,マグナムフィットネスセンター 一般,Masters 1,B,Raw,2
松井 竜一,,93,M,91.8,170,-175,-175,170,170,1976,東レ名古屋,Masters 1,B,Raw,3
三浦 雄一朗,,93,M,92.35,155,162.5,170,170,170,1989,スマイルクラブ,Open,B,Raw,13
龍神 雅幸,,93,M,85.85,150,152.5,-155,152.5,152.5,1970,個人,Open,B,Raw,16
前田 晋介,,93,M,89,142.5,147.5,152.5,152.5,152.5,1981,バリバリジム,Open,B,Raw,17
大黒 幸彦,,93,M,87,105,-117.5,,105,105,1960,挙上集団,Masters 2,B,Raw,17
木之下 竜也,,93,M,92.8,-140,-140,140,140,140,2001,神戸市立科学技術高等学校 Sub-Juniors,Open,B,Raw,19
田野 智徳,,93,M,92.2,160,165,170,170,170,1997,岡山県 エイブルスポーツクラブ Juniors,Open,B,Raw,14
安達 賢一郎,,93,M,84.3,150,155,162.5,162.5,162.5,1997,広島県 個人,Juniors,B,Raw,1
安達 隆太,,93,M,92.6,150,160,-162.5,160,160,1997,個人,Juniors,B,Raw,2
臼井 将一朗,,93,M,85.75,135,142.5,-157.5,142.5,142.5,1998,岡山県 関西学連,Juniors,B,Raw,3
下田 祐貴,,93,M,91.25,-125,-125,125,125,125,1996,ストロングライン,Juniors,B,Raw,4
中谷 章,,93,M,90.25,-175,180,-182.5,180,180,1974,POWER BOMB! GYM Masters 1,Open,B,Raw,8
齊藤 勇紀,,93,M,92.6,160,165,170,170,170,1978,広島県 瀬野川トレーニングクラブ Masters 1,Open,B,Raw,15
松沼 光紀,,93,M,92.6,155,162.5,170,170,170,1971,ＴＸＰ,Masters 1,B,Raw,4
池澤 孝泰,,93,M,91.7,152.5,160,-165,160,160,1970,ＴＸＰ,Masters 1,B,Raw,5
橋本 真,,93,M,88.2,-140,-145,150,150,150,1975,明石ベンチプレス同好会 Masters 1,Open,B,Raw,18
稲見 大地,,93,M,85.1,147.5,-150,-155,147.5,147.5,1971,京都府 京都府パワーリフティング協会,Masters 1,B,Raw,6
中溝 浩正,,93,M,,,,,,,1976,個人,Masters 1,B,Raw,DQ
西野 渉,,93,M,,,,,,,1971,K’s GYM,Masters 1,B,Raw,DQ
井上 正雄,,93,M,91.95,170,-177.5,177.5,177.5,177.5,1969,パワエリジム,Masters 2,B,Raw,1
渡邉 薫,,93,M,92.4,167.5,170,-172.5,170,170,1967,スーパーパワーアサマトレーニングクラブ,Masters 2,B,Raw,2
中澤 禎郁,,93,M,92.9,160,167.5,-172.5,167.5,167.5,1966,K’s GYM,Masters 2,B,Raw,3
今西 勝巳,,93,M,91.1,165,-175,-175,165,165,1963,横濱ベンチラバーズ,Masters 2,B,Raw,4
田口 充宏,,93,M,91.65,160,-170,-172.5,160,160,1964,ゴールドジム梅田大阪,Masters 2,B,Raw,5
目黒 英一,,93,M,92.2,160,-170,-170,160,160,1969,茨城県 パワーハウスつくば,Masters 2,B,Raw,6
川上 歩,,93,M,92.5,150,160,-165,160,160,1968,千葉県 BIG BEAR GYM,Masters 2,B,Raw,7
齋田 誠,,93,M,90.8,150,155,-160,155,155,1960,横濱ベンチラバーズ,Masters 2,B,Raw,8
佐野 修,,93,M,91.3,150,155,-157.5,155,155,1963,個人,Masters 2,B,Raw,9
秋庭 和幸,,93,M,92.15,-150,152.5,155,155,155,1967,川西バーベル協会,Masters 2,B,Raw,10
東野 正一,,93,M,91.85,145,147.5,152.5,152.5,152.5,1965,WTC藤井寺,Masters 2,B,Raw,11
伊藤 和昭,,93,M,88.95,142.5,147.5,150,150,150,1967,和歌山県パワーリフティング協会,Masters 2,B,Raw,12
水引 順一,,93,M,90.8,145,150,-155,150,150,1968,個人,Masters 2,B,Raw,13
羽田野 正,,93,M,91.9,140,150,-157.5,150,150,1961,個人,Masters 2,B,Raw,14
村中 悟,,93,M,92.25,-142.5,142.5,-152.5,142.5,142.5,1964,高岡 TC,Masters 2,B,Raw,15
飯田 浩充,,93,M,92.2,120,130,-135,130,130,1967,マッスルプロダクション,Masters 2,B,Raw,16
新屋敷 弘明,,93,M,,,,,,,1966,個人,Masters 2,B,Raw,DQ
安楽 友宏,,93,M,89.3,140,145,-150,145,145,1956,Ｉ．Ｗ．ＧＧ,Masters 3,B,Raw,1
高橋 忠三,,93,M,87.55,122.5,-127.5,127.5,127.5,127.5,1959,トレーニングジム錬磨,Masters 3,B,Raw,2
高宮 昇八,,93,M,90.7,105,-115,-117.5,105,105,1953,THE CHAWPIONS,Masters 3,B,Raw,3
花田 隆,,93,M,89.2,95,-100,100,100,100,1953,マッスルプロダクション,Masters 3,B,Raw,4
杉崎 幹男,,93,M,91.25,115,120,-122.5,120,120,1948,横濱ベンチラバーズ,Masters 4,B,Raw,1
太田 孝美,,93,M,88.85,100,105,-110,105,105,1946,個人,Masters 4,B,Raw,2
立野 正勝,,93,M,85.25,100,-105,-110,100,100,1941,Ｔｅａｍ Ｐｏｎｚｅ,Masters 4,B,Raw,3
金井 誠基,,105,M,100.1,210,-215,215,215,215,1972,プレスタ,Open,B,Raw,1
山下 保樹,Yasuki Yamashita,105,M,103.1,200,212.5,215,215,215,1991,8suki gym,Open,B,Raw,2
葛西 昌彦,Masahiko Kassai,105,M,104.8,210,215,-217.5,215,215,1971,K’s GYM,Masters 1,B,Raw,1
伊藤 智,Satoshi Ito,105,M,104.35,210,-215,-217.5,210,210,1966,K’s GYM,Masters 2,B,Raw,1
後藤 衆治,Shuji Goto,105,M,103.1,200,-210,-210,200,200,1968,広島県 瀬野川トレーニングクラブ,Masters 2,B,Raw,2
梅林 恭行,,105,M,103.65,190,195,-197.5,195,195,1983,プレスタ,Open,B,Raw,3
林 竜也,,105,M,103.85,195,-205,-205,195,195,1991,湘南BP,Open,B,Raw,4
阿久津 貴史,Takahito Akutsu,105,M,101,185,192.5,-200,192.5,192.5,1982,TXP,Open,B,Raw,5
堀口 耀介,Yosuke Horiguchi,105,M,101.3,175,190,-212.5,190,190,1993,TXP,Open,B,Raw,6
高本 樹,,105,M,100.65,170,180,-190,180,180,1993,TXP,Open,B,Raw,7
稲垣 匠真,,105,M,104.5,180,-190,-190,180,180,1991,ゴールドジム金山,Open,B,Raw,8
作原 恵太,,105,M,103.9,160,165,-170,165,165,1985,新日鐵住金君津ボディビル同好会,Open,B,Raw,9
中村 享聖,,105,M,104.1,160,165,-170,165,165,1988,substance(x),Open,B,Raw,10
三宅 綾,,105,M,95.65,-160,160,-170,160,160,1970,個人,Masters 1,B,Raw,4
澤井 翼,,105,M,98.45,150,155,157.5,157.5,157.5,1993,安曇川OBウエイトリフター,Open,B,Raw,11
辻村 明徳,,105,M,,,,,,,1979,個人,Masters 1,B,Raw,DQ
吉田 啓英,,105,M,,,,,,,1973,帝京平成大学東京ベンチプレスサークル,Masters 1,B,Raw,DQ
増澤 賢治,,105,M,,,,,,,1977,個人,Open,B,Raw,DQ
中島 聡,,105,M,,,,,,,1985,個人,Open,B,Raw,DQ
森 政也,,105,M,102.95,120,127.5,132.5,132.5,132.5,2001,浦和学院高校パワーリフティング部,Sub-Juniors,B,Raw,1
瀧本 高博,Takahiro Takimoto,105,M,103.45,205,215.5,-220.5,215.5,215.5,1996,B.A.D.,Juniors,B,Raw,1
シルバ 英樹,Hideki Da Silva,105,M,95.35,132.5,140,-147.5,140,140,1999,日本体育大学,Juniors,B,Raw,2
岩井 敦史,,105,M,93.65,170,-180,-180,170,170,1977,WTC藤井寺,Masters 1,B,Raw,2
吉野 憲二,,105,M,101,150,160,165,165,165,1972,個人,Masters 1,B,Raw,3
西田 昇一郎,,105,M,103.55,145,150,-152.5,150,150,1976,新日鐵住金君津ボディビル同好会,Masters 1,B,Raw,5
佐久間 正敏,,105,M,100.4,140,145,-150,145,145,1977,タケイパワージム,Masters 1,B,Raw,6
大上 哲司,,105,M,102.35,172.5,175,180,180,180,1969,マッスルプロダクション,Masters 2,B,Raw,3
吉松 武志,,105,M,104.05,175,-177.5,-177.5,175,175,1968,港腕パワークラブ,Masters 2,B,Raw,4
小野 和久,,105,M,100,160,170,-180,170,170,1962,宮城県 個人,Masters 2,B,Raw,5
前田 光生,,105,M,102.35,160,-172.5,-172.5,160,160,1960,チーム鉄腕,Masters 2,B,Raw,6
堀 康彦,,105,M,101.9,145,150,-152.5,150,150,1968,個人,Masters 2,B,Raw,7
森本 篤,,105,M,101.3,135,140,145,145,145,1968,個人,Masters 2,B,Raw,8
長島 義孝,,105,M,97.1,120,128,-130,128,128,1944,京都府 京都パワーリフティングクラブ,Masters 4,B,Raw,1
小原 一将,Ohara Kazumasa,120,M,117.35,215,225,-231.5,225,225,1991,マッスルプロダクション 一般,Open,B,Raw,1
和田 髙平,Kohei Wada,120,M,119.6,215,222.5,-232,222.5,222.5,1964,K's GYM,Masters 2,B,Raw,1
古賀 宏和,Hirokazu Koga,120,M,111.7,210,220,-225,220,220,1991,BEAST GYM,Open,B,Raw,2
淵野 茂樹,,120,M,117.75,200,210,212.5,212.5,212.5,1977,個人,Masters 1,B,Raw,1
山本 貴之,,120,M,118.9,190,200,202.5,202.5,202.5,1995,個人,Open,B,Raw,3
宮本 覚道,Yoshiyuki Miyamoto,120,M,117.5,192.5,200,-210,200,200,1978,あかつき幼稚園,Masters 1,B,Raw,2
加瀬 智,,120,M,120,190,-200,-205,190,190,1991,K's GYM 横浜,Open,B,Raw,4
原 新一,Shinichi Hara,120,M,115.3,177.5,182.5,-200,182.5,182.5,1973,東レ名古屋,Masters 1,B,Raw,3
川島 悠矢,,120,M,117.55,170,180,-190,180,180,1995,個人,Open,B,Raw,5
井上 健,,120,M,107.6,170,-175,175,175,175,1970,バリバリジム,Masters 1,B,Raw,5
西古 裕志,,120,M,116.95,165,172.5,-177.5,172.5,172.5,1972,東レ名古屋,Masters 1,B,Raw,7
川野 智成,,120,M,117.5,-170,170,-177.5,170,170,1980,パワーハウス,Open,B,Raw,6
井上 拳史郎,,120,M,,,,,,,1996,個人,Juniors,B,Raw,DQ
日垣 宏章,,120,M,,,,,,,1981,ノーリミッツ,Open,B,Raw,DQ
武田 裕介,Yusuke Takeda,120,M,,,,,,,1985,TXP,Open,B,Raw,DQ
名越 勇樹,,120,M,108.55,200,-210,210,210,210,1998,茨城県 BIG GUNS,Juniors,B,Raw,1
柏木 悠太郎,,120,M,,,,,,,1997,ストロングライン,Juniors,B,Raw,DQ
中村 敏雄,,120,M,113.8,170,180,-185,180,180,1970,TXP,Masters 1,B,Raw,4
山森 智行,Tomoyuki Yamamori,120,M,110,175,-182.5,-185,175,175,1972,K's GYM,Masters 1,B,Raw,6
安井 篤史,,120,M,118.55,160,167.5,172.5,172.5,172.5,1972,シロクマパワージム,Masters 1,B,Raw,8
岡本 康央,,120,M,106.05,165,-175,-175,165,165,1972,タケイパワージム,Masters 1,B,Raw,9
湯浅 正信,,120,M,112.9,200,205,-210,205,205,1962,THE CHAMPIONS,Masters 2,B,Raw,2
井上 俊二,,120,M,112.4,-170,170,-175,170,170,1961,MPC,Masters 2,B,Raw,3
渡辺 明彦,,120,M,107.7,160,170,-180,170,170,1958,新日鐵住金君津ボディビル同好会,Masters 3,B,Raw,1
永田 聡,Satoshi Narata,120+,M,142.3,225,-245,-245,225,225,1972,THE CHAMPIONS,Open,B,Raw,1
一宮 正博,,120+,M,121.85,190,-200,200,200,200,1981,トレーニングジムフリーウエイト,Open,B,Raw,2
山崎 英二朗,,120+,M,125.3,185,192.5,-200,192.5,192.5,1969,個人,Masters 2,B,Raw,1
日沼 公,,120+,M,161.15,180,-190,-190,180,180,1978,個人,Open,B,Raw,3
海老田 旭,Akira Ebita,120+,M,136.3,160,170,-180,170,170,1979,TXP,Masters 1,B,Raw,1
氏家 一郎,Ichirou Uijie,120+,M,144,132.5,140,145,145,145,1957,神奈川県警,Masters 3,B,Raw,1
和田 桃子,,43,F,42.5,42.5,-45,-45,42.5,42.5,2000,個人,Juniors,B,Raw,1
熊原 もも花,,43,F,,,,,,,1997,岡山県 個人,Juniors,B,Raw,DQ
小林 ナオコ,Naoko Kobayashi,47,F,45.5,90,-96,96,96,96,1970,湘南BP,Open,B,Raw,1
宮崎 優花,,47,F,46.75,60,67.5,70,70,70,1998,BURST LIMIT,Juniors,B,Raw,1
西村 政子,,47,F,44.7,62.5,65,-67.5,65,65,1974,LIKE SIDE POWER 一般,Masters 1,B,Raw,2
井出 悠梨恵,,47,F,44.6,60,-65,-65,60,60,1992,個人,Open,B,Raw,4
川上 茉佑,,47,F,45.05,55,57.5,60,60,60,1995,個人,Open,B,Raw,5
小林 菜々子,,47,F,45.05,52.5,57.5,-62.5,57.5,57.5,1991,タケイパワージム,Open,B,Raw,6
大平 亜希,,47,F,46.5,55,57.5,-60,57.5,57.5,1969,茨城県 パワーハルクジム,Masters 2,B,Raw,1
鈴木 綾子,,47,F,43,70,-72.5,72.5,72.5,72.5,1972,MBC POWER,Masters 1,B,Raw,1
中田 佳見,,47,F,46,60,62.5,-67.5,62.5,62.5,1971,岡山県 岩崎ＢＣ津山,Masters 1,B,Raw,3
波名城ひとみ,,47,F,45.85,55,57.5,-60,57.5,57.5,1970,パワーハウス,Masters 1,B,Raw,4
宮本 智子,Tomoko Miyamoto,47,F,46.25,75,80,83,83,83,1967,石川県 スポーツクラブ・ヴイテン Masters 2,Open,B,Raw,2
餘語 てるみ,,47,F,46.45,60,62.5,-67.5,62.5,62.5,1969,マッスルプロダクション神戸板宿 Masters 2,Open,B,Raw,3
柴田 昌美,,47,F,46.4,55,57.5,-60,57.5,57.5,1965,ストロングライン,Masters 2,B,Raw,2
門明 麻美,,47,F,46,47.5,52.5,-57.5,52.5,52.5,1967,元気クラブ,Masters 2,B,Raw,3
小島 良美,,47,F,45.5,-50,50,-52.5,50,50,1963,個人,Masters 2,B,Raw,4
瀬戸 直美,,47,F,45.85,30,-35,-37.5,30,30,1956,チームみそカツ,Masters 3,B,Raw,1
菊入 広子,Hiroko Kikuiri,47,F,46.65,47.5,-50,50,50,50,1949,パワーハウス,Masters 4,B,Raw,1
伊賀 梓,,52,F,50.75,80,85,-100.5,85,85,1985,岡山県 チーム岡山,Open,B,Raw,2
藤原 のどか,,52,F,51.35,75,-80,80,80,80,1992,明石ベンチプレス同好会 一般,Open,B,Raw,3
菊池 雅,Miyabi Kikuchi,52,F,51.45,72.5,77.5,80,80,80,1998,TXP,Juniors,B,Raw,1
西川 亜紀子,,52,F,51.45,-72.5,72.5,-75,72.5,72.5,1976,チーム鉄腕,Masters 1,B,Raw,1
堀友 貴子,,52,F,51.85,-70,-70,70,70,70,1988,Power Line,Open,B,Raw,4
鈴木 有佳,,52,F,50.45,62.5,65,67.5,67.5,67.5,1969,個人,Open,B,Raw,5
堀切 俊枝,,52,F,50.7,52.5,55,57.5,57.5,57.5,1967,SPINE HOUSE,Masters 2,B,Raw,3
髙荷 祐美,,52,F,,,,,,,1984,ビッグタートル深谷 一般 欠場,Open,B,Raw,DQ
渡辺 心愛,,52,F,48.1,45,-52.5,-52.5,45,45,2004,THE STRONGEST WARRIORS Sub-Juniors,Open,B,Raw,7
宇都宮 真由,,52,F,49.1,-60,60,-62.5,60,60,1998,トレーニングジムフリーウエイト,Juniors,B,Raw,2
横溝 千尋,,52,F,50.25,55,-62.5,-65,55,55,1996,BEAST GYM,Juniors,B,Raw,3
古屋 典子,Noriko Furuya,52,F,51.45,80,85,87.5,87.5,87.5,1971,横濱ベンチラバーズ Masters 1,Open,B,Raw,1
伊藤 由実子,,52,F,51.6,55,57.5,60,60,60,1976,K's GYM,Masters 1,B,Raw,2
長江 由美子,,52,F,51.5,50,55,-60,55,55,1974,岡山県 個人,Masters 1,B,Raw,3
木場 恵美子,Emiko Kiba,52,F,50.9,75,80,85.5,85.5,85.5,1962,湘南BP,Masters 2,B,Raw,1
張吉 博子,,52,F,49.25,60,62.5,-65,62.5,62.5,1962,和歌山県パワーリフテｲング協会,Masters 2,B,Raw,2
藤崎 晴美,,52,F,49.7,47.5,50,-52.5,50,50,1963,茨城県 水戸パワーリフティング協会 Masters 2,Open,B,Raw,6
田坂 朋子,,52,F,50.85,45,50,-55,50,50,1966,個人,Masters 2,B,Raw,4
石橋 愛子,,52,F,48.85,55,60,62.5,62.5,62.5,1953,ストロングライン,Masters 3,B,Raw,1
大澤 幸子,,52,F,48.55,45,47.5,-50,47.5,47.5,1956,ストロングライン,Masters 3,B,Raw,2
福田 鈴子,,52,F,50.85,37.5,42.5,-45,42.5,42.5,1953,ストロングライン,Masters 3,B,Raw,3
島田 裕子,,52,F,50.05,32.5,-37.5,-37.5,32.5,32.5,1957,個人,Masters 3,B,Raw,4
山ノ井 貞子,,52,F,49.55,35,-40,40,40,40,1944,個人,Masters 4,B,Raw,1
栗原 初音,,52,F,51.35,40,-42.5,-42.5,40,40,1945,越谷市民プールトレーニングジム,Masters 4,B,Raw,2
福島 未里,,57,F,56.8,95,102.5,-106.5,102.5,102.5,1991,F.T GYM,Open,B,Raw,1
富山 春香,Haruka Toyama,57,F,54.7,92.5,95,-100,95,95,1990,トレーニングジムフリーウエイト 一般,Open,B,Raw,2
中野 栞,,57,F,56.6,87.5,92.5,-97.5,92.5,92.5,1991,ノーリミッツ,Open,B,Raw,3
植田 滋美,,57,F,56.1,80,82.5,-85,82.5,82.5,1968,SPINE HOUSE,Masters 2,B,Raw,1
奥谷 由香,,57,F,56.8,72.5,77.5,-80,77.5,77.5,1984,K's GYM,Open,B,Raw,4
川端 友巳,,57,F,54.5,65,67.5,70,70,70,1979,ゼウスジム,Masters 1,B,Raw,2
深澤 歩,,57,F,57,-60,62.5,67.5,67.5,67.5,1988,ビックタートル深谷 一般,Open,B,Raw,5
番 詩織,,57,F,56.3,60,-65,-65,60,60,1991,チームみそカツ,Open,B,Raw,7
木村 彩音,,57,F,55.4,55,62.5,-70,62.5,62.5,2000,帝京平成大学千葉ベンチプレスサークル Juniors,Open,B,Raw,6
大友 風海,,57,F,55.65,40,-47.5,-47.5,40,40,1997,帝京平成大学千葉ベンチプレスサークル Juniors,Open,B,Raw,8
伊藤 千帆,Chiho Ito,57,F,56.65,85,90,-103,90,90,1974,K's Gym,Masters 1,B,Raw,1
寺村 美香,Mika Teramura,57,F,53.8,65,67.5,70,70,70,1962,江別協会,Masters 2,B,Raw,2
武本 早恵,,57,F,54.65,60,65,-67.5,65,65,1969,京都府 京都パワーリフティングクラブ,Masters 2,B,Raw,3
山崎 頼子,Yoriko Yamazaki,57,F,54.9,77.5,80,81,81,81,1959,個人,Masters 3,B,Raw,1
長尾 優子,,57,F,55.65,55,57.5,-60,57.5,57.5,1950,ストロングライン,Masters 3,B,Raw,2
藤永 ひとみ,,57,F,,,,,,,1956,MAT,Masters 3,B,Raw,DQ
伊川 玲子,Reiko Igawa,57,F,53.85,45,47.5,50,50,50,1939,越谷市民プールトレーニングジム,Masters 4,B,Raw,1
嶋岡 民栄,,57,F,55.45,50,-52.5,-52.5,50,50,1946,烈剛河内,Masters 4,B,Raw,2
石橋 茜,Akane Ishibashi,63,F,57.1,97.5,105.5,-110,105.5,105.5,1993,K's GYM 横浜 一般,Open,B,Raw,1
山野 舞花,,63,F,62.95,87.5,90,92.5,92.5,92.5,1996,パワーハウス赤穂 一般,Juniors,B,Raw,1
石田 みどり,,63,F,59,82.5,-85,85,85,85,1963,サンプレイフィットネスセンター 一般,Masters 2,B,Raw,1
岩井 知子,,63,F,60.5,55,57.5,60,60,60,1975,SPINE HOUSE,Masters 1,B,Raw,3
菅谷 友美,,63,F,62.25,55,60,62.5,62.5,62.5,1999,関東学連,Juniors,B,Raw,2
種橋 久美,,63,F,61.5,72.5,77.5,80,80,80,1971,湘南BP,Masters 1,B,Raw,1
篠原 千絵,,63,F,60.4,62.5,67.5,-70,67.5,67.5,1970,ストロングライン,Masters 1,B,Raw,2
塚本 美紀,,63,F,62.05,-50,50,52.5,52.5,52.5,1972,パワーハウス,Masters 1,B,Raw,4
工藤 智恵子,,63,F,62.5,62.5,67.5,70,70,70,1967,マッスルプロダクション Masters 2,Open,B,Raw,3
柳沢 由紀子,,63,F,57.45,50,55,-60,55,55,1967,K's GYM横浜,Masters 2,B,Raw,2
高垣 慶子,,63,F,62.1,55,-57.5,-57.5,55,55,1962,グッドコンディション Masters 2,Open,B,Raw,4
星田 千鶴子,,63,F,62.3,65,70,74.5,74.5,74.5,1953,新潟県 五泉フィットネスクラブ Masters 3,Open,B,Raw,2
林 久子,Hisako Hayashi,63,F,61.95,65,70,74,74,74,1957,雷神ファクトリー,Masters 3,B,Raw,1
山下 彩,Aya Yamashita,72,F,63.35,87.5,92.5,100,100,100,1986,8suki gym,Open,B,Raw,1
徳武 恵美,Emi Tokutake,72,F,71.3,95,100,-103,100,100,1964,TXP,Masters 2,B,Raw,1
照屋 利恵,Rie Teruya,72,F,68.5,80,85,90,90,90,1975,POWERSPORT,Masters 1,B,Raw,1
櫻井 美幸,,72,F,71.5,80,-85,-87.5,80,80,1969,茨城県 BIG GUNS,Masters 2,B,Raw,2
堀な つみ,,72,F,70.95,50,55,-60,55,55,1996,個人,Juniors,B,Raw,1
鷲頭 智子,,72,F,64.4,70,75,-80,75,75,1978,個人,Masters 1,B,Raw,2
鶴田 千恵,,72,F,69.35,70,-75,-77.5,70,70,1973,宮城県 THE ZEN CLUB K＆B GYM Masters 1,Open,B,Raw,2
中根 春美,,72,F,64.1,67.5,72.5,75,75,75,1961,ちからこぶ,Masters 2,B,Raw,3
岡田 美佐,Misa Okada,72,F,63.25,65,70,-75,70,70,1968,個人,Masters 2,B,Raw,4
野尻 かほる,,72,F,65.9,67.5,-70,-70,67.5,67.5,1961,個人,Masters 2,B,Raw,5
白石 佳子,,72,F,70.45,55,60,65,65,65,1968,個人,Masters 2,B,Raw,6
中山 みどり,,72,F,65.1,35,42.5,-45,42.5,42.5,1941,シロクマパワージム Masters 4,Open,B,Raw,3
田島 瞳,Hitomi Tajima,84,F,82.3,82.5,90,97.5,97.5,97.5,1982,BIG FIVE,Open,B,Raw,1
林 美緒,,84,F,75.25,70,78,82,82,82,2001,岡崎城西高校,Sub-Juniors,B,Raw,1
澤 千代美,Chiyomi Sawa,84,F,77.65,67.5,72.5,75,75,75,1949,パワーハウス,Masters 4,B,Raw,1
小松 麻実,Mami Komatsu,84+,F,105.3,75,80,82.5,82.5,82.5,1969,有光自動車,Masters 2,B,Raw,1
