Division,WeightClassKg,Place,Name,Team,BodyweightKg,Best3SquatKg,Best3BenchKg,Best3DeadliftKg,TotalKg,Equipment,Event,Sex
Boys,51.71,1,Echo Jones,Strawn,51.71,136.08,65.77,167.83,369.68,Single-ply,SBD,M
Boys,51.71,2,Antonio Ponce,Glen Rose,50.8,129.27,72.57,154.22,356.07,Single-ply,SBD,M
Boys,51.71,3,Isaack Santillan,Clifton,50.8,92.99,65.77,127.01,285.76,Single-ply,SBD,M
Boys,51.71,4,Nathan Williams,Meridian,51.71,90.72,54.43,99.79,244.94,Single-ply,SBD,M
Boys,55.79,1,Oscar Perez,Venus,55.34,154.22,88.45,156.49,399.16,Single-ply,SBD,M
Boys,55.79,2,Cody Halcom,Glen Rose,55.79,136.08,72.57,158.76,367.41,Single-ply,SBD,M
Boys,55.79,3,Julian Coronado,San Saba,52.16,120.2,70.31,140.61,331.12,Single-ply,SBD,M
Boys,55.79,4,Rodrigo Hernandez,Hillsboro,54.43,120.2,74.84,136.08,331.12,Single-ply,SBD,M
Boys,55.79,5,Daniel Rosales,San Saba,55.79,108.86,68.04,149.69,326.59,Single-ply,SBD,M
Boys,55.79,6,Payton Johnson,San Saba,52.16,108.86,72.57,136.08,317.51,Single-ply,SBD,M
Boys,55.79,7,Robby Brewer,Clifton,55.34,120.2,74.84,104.33,299.37,Single-ply,SBD,M
Boys,55.79,8,Osvaldo Antunez,Hillsboro,55.34,95.25,77.11,106.59,278.96,Single-ply,SBD,M
Boys,55.79,9,Stephen McNaught,Meridian,55.79,77.11,36.29,90.72,204.12,Single-ply,SBD,M
Boys,55.79,10,Cash Brooks,Joshua,55.79,54.43,43.09,70.31,167.83,Single-ply,SBD,M
Boys,59.87,1,Jorge Perez,Venus,58.97,188.24,86.18,176.9,451.32,Single-ply,SBD,M
Boys,59.87,2,Azahel Herrera,Glen Rose,59.87,158.76,113.4,179.17,451.32,Single-ply,SBD,M
Boys,59.87,3,Emiliano Mar,Clifton,59.42,138.35,86.18,149.69,374.21,Single-ply,SBD,M
Boys,59.87,4,Justin O'Neal,Clifton,59.87,136.08,77.11,138.35,351.53,Single-ply,SBD,M
Boys,59.87,5,Tommy Jiminez,Gustine,59.87,122.47,79.38,136.08,337.93,Single-ply,SBD,M
Boys,59.87,6,Bob Johnson,Meridian,59.42,111.13,72.57,136.08,319.78,Single-ply,SBD,M
Boys,67.13,7,Emmanuel McQueen,Dublin,60.06,111.13,83.91,124.74,319.78,Single-ply,SBD,M
Boys,59.87,8,Daniel Rodriguez,Dublin,59.06,111.13,74.84,129.27,315.25,Single-ply,SBD,M
Boys,59.87,9,Billy Woodard,Cross Plains,59.87,113.4,72.57,122.47,308.44,Single-ply,SBD,M
Boys,59.87,10,Sam Shorts,Whitney,58.97,120.2,61.23,120.2,301.64,Single-ply,SBD,M
Boys,59.87,11,Aaron Seery,Alvarado,58.06,99.79,72.57,113.4,285.76,Single-ply,SBD,M
Boys,59.87,12,Kylar Mercer,Early,59.42,102.06,70.31,111.13,283.5,Single-ply,SBD,M
Boys,59.87,13,Robert Clark,Early,58.06,90.72,52.16,106.59,249.48,Single-ply,SBD,M
Boys,59.87,DQ,José Cortés,Dublin,57.97,102.06,,133.81,,Single-ply,SBD,M
Boys,59.87,DQ,Victor Narvaez,Santo,58.06,120.2,,129.27,,Single-ply,SBD,M
Boys,67.13,1,Chris Hernandez,Venus,66.68,195.04,117.93,195.04,508.02,Single-ply,SBD,M
Boys,67.13,2,Cesar Herrera,Glen Rose,63.5,172.37,104.33,183.7,460.4,Single-ply,SBD,M
Boys,67.13,3,Dalton Zinck,Dublin,64.05,174.63,106.59,163.29,444.52,Single-ply,SBD,M
Boys,67.13,4,Ryan Martinez,Early,66.68,145.15,106.59,156.49,408.23,Single-ply,SBD,M
Boys,67.13,5,Jacob Locke,Glen Rose,66.68,151.95,83.91,167.83,403.7,Single-ply,SBD,M
Boys,67.13,6,Bryce Sims,Hamilton,64.86,142.88,86.18,142.88,371.95,Single-ply,SBD,M
Boys,67.13,7,Gino Marks,Coleman,66.22,127.01,92.99,142.88,362.87,Single-ply,SBD,M
Boys,67.13,8,John Anderson,Meridian,67.13,113.4,90.72,133.81,337.93,Single-ply,SBD,M
Boys,67.13,9,Christian Bares,Whitney,63.5,111.13,81.65,142.88,335.66,Single-ply,SBD,M
Boys,67.13,10,Collin Miller,Brock,65.77,117.93,72.57,140.61,331.12,Single-ply,SBD,M
Boys,67.13,11,Tristan Molina,Whitney,66.68,113.4,70.31,136.08,319.78,Single-ply,SBD,M
Boys,67.13,12,Israel Vazquez,Dublin,65.68,117.93,65.77,133.81,317.51,Single-ply,SBD,M
Boys,67.13,13,Jacob Sparks,Tolar,61.69,97.52,70.31,120.2,288.03,Single-ply,SBD,M
Boys,67.13,14,Khale Buck,Early,64.41,102.06,61.23,124.74,288.03,Single-ply,SBD,M
Boys,67.13,15,Juan Tovias,San Saba,66.68,99.79,74.84,111.13,285.76,Single-ply,SBD,M
Boys,67.13,16,Max Dodds,Tolar,65.32,102.06,56.7,111.13,269.89,Single-ply,SBD,M
Boys,67.13,17,Marc Lopez,Gustine,65.32,77.11,74.84,99.79,251.74,Single-ply,SBD,M
Boys,67.13,18,Donnie Rowe,Alvarado,64.86,99.79,52.16,90.72,242.67,Single-ply,SBD,M
Boys,67.13,19,Dakota Ward,Hamilton,63.5,74.84,52.16,90.72,217.72,Single-ply,SBD,M
Boys,67.13,DQ,Josh Tipton,Tolar,65.32,102.06,,120.2,,Single-ply,SBD,M
Boys,67.13,DQ,Armando Aguilar,Gustine,67.13,176.9,,188.24,,Single-ply,SBD,M
Boys,74.84,1,Lane Yancy,Joshua,74.39,156.49,97.52,201.85,455.86,Single-ply,SBD,M
Boys,74.84,2,Daniel Chavez,Clifton,70.76,147.42,99.79,176.9,424.11,Single-ply,SBD,M
Boys,74.84,3,Jacob Riley,Dublin,70.67,133.81,88.45,190.51,412.77,Single-ply,SBD,M
Boys,74.84,4,Jose Martinez,Rising Star,74.39,136.08,104.33,163.29,403.7,Single-ply,SBD,M
Boys,74.84,5,Anthony Garcia,Strawn,67.59,151.95,83.91,158.76,394.63,Single-ply,SBD,M
Boys,74.84,6,Broox Powell,Brock,70.76,142.88,90.72,156.49,390.09,Single-ply,SBD,M
Boys,74.84,7,Emmanuel Silva,Venus,73.03,154.22,72.57,161.03,387.82,Single-ply,SBD,M
Boys,74.84,8,Hayden Turner,Early,69.4,136.08,83.91,165.56,385.55,Single-ply,SBD,M
Boys,74.84,9,Angel Torres,Whitney,68.95,149.69,92.99,136.08,378.75,Single-ply,SBD,M
Boys,74.84,10,Adrian Astello,Santo,67.59,147.42,74.84,151.95,374.21,Single-ply,SBD,M
Boys,74.84,11,Nacho Rios,Comanche,71.67,124.74,102.06,136.08,362.87,Single-ply,SBD,M
Boys,74.84,12,Tate Swearengin,Glen Rose,71.21,136.08,79.38,142.88,358.34,Single-ply,SBD,M
Boys,74.84,13,Ryan Gaitan,Dublin,68.13,129.27,83.91,133.81,347,Single-ply,SBD,M
Boys,74.84,14,Martin Najera,Hamilton,70.76,124.74,72.57,147.42,344.73,Single-ply,SBD,M
Boys,74.84,15,Christian Uhlhorn,Ranger,68.04,124.74,68.04,142.88,335.66,Single-ply,SBD,M
Boys,74.84,16,Trace Humphries,Brock,71.21,129.27,63.5,136.08,328.85,Single-ply,SBD,M
Boys,74.84,17,Danny Rowe,Alvarado,72.12,99.79,72.57,113.4,285.76,Single-ply,SBD,M
Boys,74.84,18,Dillon Allen,Whitney,72.57,108.86,63.5,113.4,285.76,Single-ply,SBD,M
Boys,74.84,19,Malik Jones,Tolar,68.95,92.99,63.5,97.52,254.01,Single-ply,SBD,M
Boys,74.84,DQ,Caleb Wagner,Hamilton,68.04,102.06,,,,Single-ply,SBD,M
Boys,74.84,DQ,Jermay Hall,Rio Vista,73.48,161.03,,156.49,,Single-ply,SBD,M
Boys,74.84,DQ,Jonathan Stephens,Rio Vista,74.84,88.45,,120.2,,Single-ply,SBD,M
Boys,74.84,DQ,Blake Stephens,Rio Vista,71.67,83.91,,111.13,,Single-ply,SBD,M
Boys,89.81,1,Payton Nance,Comanche,82.28,181.44,111.13,188.24,480.81,Single-ply,SBD,M
Boys,82.1,2,Kully Reynolds,Glen Rose,75.75,181.44,97.52,181.44,460.4,Single-ply,SBD,M
Boys,82.1,3,Logan Thomas,Early,75.75,167.83,106.59,181.44,455.86,Single-ply,SBD,M
Boys,82.1,4,Eduardo Ortiz,Hillsboro,80.56,170.1,90.72,179.17,439.98,Single-ply,SBD,M
Boys,82.1,5,Brett Shaw,Early,75.75,149.69,111.13,158.76,419.57,Single-ply,SBD,M
Boys,82.1,6,Josh Lucas,Clifton,77.75,147.42,92.99,170.1,410.5,Single-ply,SBD,M
Boys,82.1,7,Jaime Reynoso,Meridian,80.74,170.1,90.72,149.69,410.5,Single-ply,SBD,M
Boys,82.1,8,Gabriel Coronado,Dublin,79.74,158.76,83.91,163.29,405.97,Single-ply,SBD,M
Boys,82.1,9,Tate Tabor,Moran,79.74,142.88,92.99,167.83,403.7,Single-ply,SBD,M
Boys,82.1,10,James Briggs,Cross Plains,80.01,154.22,83.91,154.22,392.36,Single-ply,SBD,M
Boys,89.81,11,Abe Morris,Early,82.28,136.08,92.99,161.03,390.09,Single-ply,SBD,M
Boys,82.1,12,Angel Garza,Comanche,78.2,142.88,88.45,133.81,365.14,Single-ply,SBD,M
Boys,82.1,13,Chris Flores,Hillsboro,77.66,145.15,90.72,117.93,353.8,Single-ply,SBD,M
Boys,82.1,14,Emiliano Jimenez,Comanche,78.2,136.08,86.18,127.01,349.27,Single-ply,SBD,M
Boys,82.1,15,Justice Collins,Rising Star,80.74,99.79,61.23,147.42,308.44,Single-ply,SBD,M
Boys,82.1,16,Branson Armstrong,Hamilton,77.66,113.4,61.23,102.06,276.69,Single-ply,SBD,M
Boys,82.1,17,Wyatt Catoe,Hamilton,77.66,92.99,61.23,83.91,238.14,Single-ply,SBD,M
Boys,82.1,DQ,Tucker Birk,Santo,75.93,174.63,,174.63,,Single-ply,SBD,M
Boys,89.81,DQ,Brian Leal,Whitney,82.28,129.27,,161.03,,Single-ply,SBD,M
Boys,82.1,DQ,Logan Hoffman,Brock,78.2,,83.91,147.42,,Single-ply,SBD,M
Boys,82.1,DQ,Carson Langen,Brock,79.38,,83.91,142.88,,Single-ply,SBD,M
Boys,89.81,1,Gordon Lewis,Tolar,87.18,192.78,124.74,206.38,523.9,Single-ply,SBD,M
Boys,89.81,2,Ty Cochrane,Tolar,85.18,195.04,104.33,222.26,521.63,Single-ply,SBD,M
Boys,89.81,3,Jordan Larance,Clifton,89.63,183.7,102.06,185.97,471.74,Single-ply,SBD,M
Boys,89.81,4,Miguel Elizondo,Early,86.91,188.24,97.52,165.56,451.32,Single-ply,SBD,M
Boys,89.81,5,Taylor Bradley,Clifton,88.9,183.7,102.06,165.56,451.32,Single-ply,SBD,M
Boys,89.81,6,Dakota Deger,Joshua,83.19,147.42,102.06,188.24,437.72,Single-ply,SBD,M
Boys,89.81,7,Timothy Thomas,Whitney,85,165.56,90.72,167.83,424.11,Single-ply,SBD,M
Boys,89.81,8,Dathan Harding,Early,84.37,170.1,104.33,147.42,421.84,Single-ply,SBD,M
Boys,89.81,9,Caleb Bubenik,Santo,83.01,165.56,83.91,142.88,392.36,Single-ply,SBD,M
Boys,89.81,10,Tre Rose,Brock,89.36,131.54,74.84,136.08,342.46,Single-ply,SBD,M
Boys,89.81,11,Michael Ivy,Santo,84.64,124.74,61.23,102.06,288.03,Single-ply,SBD,M
Boys,89.81,12,Ben Steele,Moran,89.45,90.72,77.11,115.67,283.5,Single-ply,SBD,M
Boys,89.81,DQ,Weston Donley,Joshua,84.01,140.61,,149.69,,Single-ply,SBD,M
Boys,89.81,DQ,Ramon Juarez,Rio Vista,86.91,145.15,,156.49,,Single-ply,SBD,M
Boys,99.79,DQ,Leonel Hernandez,Alvarado,89.9,,90.72,174.63,,Single-ply,SBD,M
Boys,99.79,1,Heath Nicholson,Glen Rose,99.16,254.01,117.93,249.48,621.42,Single-ply,SBD,M
Boys,99.79,2,Manuel Murillo,Venus,98.07,226.8,154.22,206.38,587.4,Single-ply,SBD,M
Boys,99.79,3,Aaron Platt,Tolar,97.89,210.92,142.88,226.8,580.6,Single-ply,SBD,M
Boys,99.79,4,Braxton Fuller,Alvarado,93.71,217.72,131.54,229.06,578.33,Single-ply,SBD,M
Boys,99.79,5,Miguel Barraza,Glen Rose,95.71,226.8,136.08,215.46,578.33,Single-ply,SBD,M
Boys,109.77,6,Bradley English,Joshua,99.97,195.04,156.49,188.24,539.77,Single-ply,SBD,M
Boys,99.79,7,Armando Nunez,Venus,93.17,192.78,127.01,213.19,532.97,Single-ply,SBD,M
Boys,99.79,8,Eduardo Cruz,Hillsboro,96.16,222.26,115.67,185.97,523.9,Single-ply,SBD,M
Boys,99.79,9,Jason Schmidt #1,Clifton,93.26,183.7,115.67,206.38,505.76,Single-ply,SBD,M
Boys,99.79,10,Guadalupe Silva,Venus,92.99,188.24,113.4,195.04,496.68,Single-ply,SBD,M
Boys,99.79,11,Drannon Brewer,Glen Rose,92.53,188.24,92.99,192.78,474,Single-ply,SBD,M
Boys,99.79,12,Jonathan Sanchez,Alvarado,95.25,181.44,104.33,183.7,469.47,Single-ply,SBD,M
Boys,99.79,13,Randy Charman,Ranger,93.35,147.42,77.11,192.78,417.3,Single-ply,SBD,M
Boys,99.79,14,Tucker Downs,Rio Vista,98.7,142.88,102.06,158.76,403.7,Single-ply,SBD,M
Boys,99.79,15,Justin Wardlow,Whitney,93.35,147.42,104.33,149.69,401.43,Single-ply,SBD,M
Boys,99.79,16,Seth Alston,Santo,96.8,151.95,83.91,149.69,385.55,Single-ply,SBD,M
Boys,99.79,17,Sage Boleman,Brock,91.72,147.42,83.91,149.69,381.02,Single-ply,SBD,M
Boys,99.79,18,Sam Johnson,Hamilton,96.8,142.88,74.84,142.88,360.61,Single-ply,SBD,M
Boys,99.79,19,Will Bridgewater,Hamilton,97.7,142.88,61.23,142.88,347,Single-ply,SBD,M
Boys,99.79,20,Chaas Firth,Whitney,93.35,124.74,70.31,129.27,324.32,Single-ply,SBD,M
Boys,99.79,DQ,Sawyer Cole,Joshua,98.52,204.12,,174.63,,Single-ply,SBD,M
Boys,99.79,DQ,Nick Lara,Glen Rose,94.8,,81.65,142.88,,Single-ply,SBD,M
Boys,109.77,1,Nathaniel Rutherford,Joshua,102.6,272.16,147.42,251.74,671.32,Single-ply,SBD,M
Boys,109.77,2,Braxton Barrios,Glen Rose,101.24,233.6,145.15,219.99,598.74,Single-ply,SBD,M
Boys,109.77,3,Austin Coker,Santo,109.41,238.14,140.61,204.12,582.87,Single-ply,SBD,M
Boys,109.77,4,David Madore,Ranger,107.32,188.24,133.81,183.7,505.76,Single-ply,SBD,M
Boys,109.77,5,Silas McClatchey,Alvarado,108.68,217.72,127.01,149.69,494.42,Single-ply,SBD,M
Boys,109.77,6,Jesus Garza,Meridian,102.97,181.44,115.67,181.44,478.54,Single-ply,SBD,M
Boys,109.77,7,Ethan Price,Dublin,104.05,174.63,113.4,176.9,464.93,Single-ply,SBD,M
Boys,124.74,8,Ishmael Ramirez,Hillsboro,109.95,201.85,113.4,136.08,451.32,Single-ply,SBD,M
Boys,109.77,9,Weston Conine,Comanche,102.97,161.03,120.2,165.56,446.79,Single-ply,SBD,M
Boys,109.77,10,Cody Wilson,Hamilton,105.32,147.42,102.06,181.44,430.91,Single-ply,SBD,M
Boys,109.77,11,Troy Meyer,Whitney,108.14,170.1,92.99,147.42,410.5,Single-ply,SBD,M
Boys,109.77,DQ,Reece Nickell,Glen Rose,103.87,151.95,,158.76,,Single-ply,SBD,M
Boys,124.74,1,Pedro Bernal,Comanche,123.65,260.82,151.95,226.8,639.57,Single-ply,SBD,M
Boys,124.74,2,Marcus Lopez,Strawn,111.4,204.12,122.47,215.46,542.04,Single-ply,SBD,M
Boys,124.74,3,Jacob Mata,Clifton,118.48,219.99,124.74,195.04,539.77,Single-ply,SBD,M
Boys,124.74,4,Trace Boyd,Strawn,116.75,188.24,136.08,181.44,505.76,Single-ply,SBD,M
Boys,124.74,5,Alejandro Rodriguez,Joshua,119.66,174.63,104.33,176.9,455.86,Single-ply,SBD,M
Boys,124.74,6,Josh Moore,Strawn,120.02,154.22,102.06,154.22,410.5,Single-ply,SBD,M
Boys,124.74,7,Nate Martin,Whitney,114.85,136.08,61.23,136.08,333.39,Single-ply,SBD,M
Boys,124.74,8,Kyle Krueger,Hamilton,114.94,136.08,68.04,113.4,317.51,Single-ply,SBD,M
Boys,124.74,9,Leo Garcia,Gustine,114.67,113.4,83.91,113.4,310.71,Single-ply,SBD,M
Boys,124.74,DQ,Riccardo Martinez,Rio Vista,116.48,158.76,86.18,,,Single-ply,SBD,M
Boys,124.74,DQ,Marcos Anaya,Meridian,110.86,,97.52,136.08,,Single-ply,SBD,M
Boys,124.74+,1,Jordan Allen,Clifton,160.3,281.23,163.29,226.8,671.32,Single-ply,SBD,M
Boys,124.74+,2,Weldon Edwards,Early,163.75,249.48,142.88,204.12,596.47,Single-ply,SBD,M
Boys,124.74+,3,Logan Nuss,Alvarado,135.35,204.12,145.15,204.12,553.38,Single-ply,SBD,M
Boys,124.74+,4,David Garcia,Venus,128.46,172.37,136.08,161.03,469.47,Single-ply,SBD,M
Boys,124.74+,5,Chris Hall,Brock,127.46,158.76,102.06,151.95,412.77,Single-ply,SBD,M
Boys,124.74+,6,Taydon Benson,Coleman,159.76,147.42,83.91,145.15,376.48,Single-ply,SBD,M
