Division,WeightClassKg,Place,Name,Team,BodyweightKg,Best3SquatKg,Best3BenchKg,Best3DeadliftKg,TotalKg,Equipment,Event,Sex
Boys,51.71,1,Gordon Griesel,Fort Worth Boswell,51.12,104.33,61.23,113.4,278.96,Single-ply,SBD,M
Boys,51.71,2,Cooper Magee,Azle,51.48,90.72,45.36,113.4,249.48,Single-ply,SBD,M
Boys,55.79,1,Nate Sylakhom,Fort Worth Boswell,53.98,136.08,63.5,158.76,358.34,Single-ply,SBD,M
Boys,55.79,2,Gavin Hacker,Azle,55.34,115.67,68.04,124.74,308.44,Single-ply,SBD,M
Boys,59.87,1,Hunter Martin,Azle,59.33,149.69,90.72,179.17,419.57,Single-ply,SBD,M
Boys,59.87,2,Anthony Phimmasone,Fort Worth Boswell,58.11,147.42,90.72,170.1,408.23,Single-ply,SBD,M
Boys,59.87,3,Randy Castillo,Azle,58.15,136.08,90.72,147.42,374.21,Single-ply,SBD,M
Boys,59.87,4,Breadan Knoll,Azle,59.56,127.01,83.91,138.35,349.27,Single-ply,SBD,M
Boys,59.87,5,Casper Carter,Saginaw,59.65,106.59,61.23,117.93,285.76,Single-ply,SBD,M
Boys,67.13,1,Colt Edwards,Fort Worth Boswell,65.73,183.7,104.33,165.56,453.59,Single-ply,SBD,M
Boys,67.13,2,Dane Dorris,Azle,66.63,183.7,108.86,158.76,451.32,Single-ply,SBD,M
Boys,67.13,3,Richard Taylor,Fort Worth Boswell,66.36,151.95,113.4,170.1,435.45,Single-ply,SBD,M
Boys,67.13,4,Ethan Hudson,Fort Worth Boswell,67.04,151.95,97.52,158.76,408.23,Single-ply,SBD,M
Boys,67.13,5,Gavin Johnson,Saginaw,63.87,136.08,95.25,136.08,367.41,Single-ply,SBD,M
Boys,67.13,6,Darryan Clark,Saginaw,66.41,142.88,81.65,167.83,392.36,Single-ply,SBD,M
Boys,67.13,7,Morgan Gregory,Azle,63.37,106.59,70.31,124.74,301.64,Single-ply,SBD,M
Boys,67.13,8,Zunair Waseem,Saginaw,65.23,102.06,70.31,124.74,297.1,Single-ply,SBD,M
Boys,74.84,1,Noah Smith,Saginaw,73.53,199.58,131.54,208.65,539.77,Single-ply,SBD,M
Boys,74.84,2,Isaiah Dominguez,Fort Worth Boswell,74.84,185.97,117.93,199.58,503.49,Single-ply,SBD,M
Boys,74.84,3,CJ van Slyke,Azle,74.8,172.37,104.33,172.37,449.06,Single-ply,SBD,M
Boys,74.84,4,Jason Arellano,Azle,74.21,170.1,99.79,170.1,439.98,Single-ply,SBD,M
Boys,74.84,5,Camron Hurst,Fort Worth Boswell,74.25,149.69,106.59,170.1,426.38,Single-ply,SBD,M
Boys,74.84,6,Deon Lipscomb,Fort Worth Boswell,73.94,158.76,97.52,165.56,421.84,Single-ply,SBD,M
Boys,74.84,7,Emerson Sheperd,Saginaw,73.57,131.54,79.38,167.83,378.75,Single-ply,SBD,M
Boys,74.84,8,Carson Counts,Fort Worth Boswell,73.71,136.08,83.91,158.76,378.75,Single-ply,SBD,M
Boys,74.84,9,Matthew Davis,Fort Worth Boswell,74.66,149.69,81.65,145.15,376.48,Single-ply,SBD,M
Boys,74.84,10,Caden Hickman,Saginaw,71.12,102.06,52.16,129.27,283.5,Single-ply,SBD,M
Boys,82.1,1,Jorge Alvarez,Fort Worth Boswell,76.2,156.49,104.33,181.44,442.25,Single-ply,SBD,M
Boys,82.1,2,Andres Delgadillo,Saginaw,81.56,163.29,95.25,181.44,439.98,Single-ply,SBD,M
Boys,82.1,3,Nate Robinson,Azle,79.88,158.76,92.99,167.83,419.57,Single-ply,SBD,M
Boys,82.1,4,Garrett Guyton,Azle,79.83,156.49,81.65,158.76,396.89,Single-ply,SBD,M
Boys,82.1,5,Michael Garcia,Saginaw,80.33,138.35,83.91,142.88,365.14,Single-ply,SBD,M
Boys,82.1,6,Stan Chwojdak,Saginaw,77.25,120.2,70.31,136.08,326.59,Single-ply,SBD,M
Boys,89.81,1,Ricky Firman,Azle,89.54,190.51,90.72,215.46,496.68,Single-ply,SBD,M
Boys,89.81,2,Dylan Allsbrooks,Fort Worth Boswell,84.37,176.9,129.27,181.44,487.61,Single-ply,SBD,M
Boys,89.81,3,Josh Martinez,Fort Worth Boswell,84.19,192.78,111.13,181.44,485.34,Single-ply,SBD,M
Boys,89.81,4,Dami Aremu,Saginaw,82.69,142.88,70.31,170.1,383.29,Single-ply,SBD,M
Boys,89.81,DQ,Micheal Watkins,Azle,86.23,138.35,,,,Single-ply,SBD,M
Boys,89.81,DQ,Jonathan Lester,Azle,89.09,188.24,120.2,,,Single-ply,SBD,M
Boys,89.81,DQ,Parker Anderson,Fort Worth Boswell,82.33,158.76,92.99,,,Single-ply,SBD,M
Boys,99.79,1,Carlos Hernandez,Saginaw,92.8,240.4,127.01,226.8,594.21,Single-ply,SBD,M
Boys,99.79,2,Canaan Revelle,Azle,99.79,199.58,124.74,201.85,526.17,Single-ply,SBD,M
Boys,99.79,3,Stephen Williams,Saginaw,99.25,201.85,102.06,190.51,494.42,Single-ply,SBD,M
Boys,99.79,4,Tyler Luangraj,Saginaw,92.08,192.78,102.06,190.51,485.34,Single-ply,SBD,M
Boys,99.79,5,Trent Hubbert,Fort Worth Boswell,95.75,176.9,102.06,195.04,474,Single-ply,SBD,M
Boys,99.79,6,Koby Mendez,Azle,99.79,165.56,113.4,158.76,437.72,Single-ply,SBD,M
Boys,99.79,7,Garrett Palmer,Fort Worth Boswell,93.08,165.56,102.06,156.49,424.11,Single-ply,SBD,M
Boys,99.79,8,Dylan Garcia,Saginaw,95.3,158.76,83.91,181.44,424.11,Single-ply,SBD,M
Boys,99.79,DQ,Gannon Slovacek,Fort Worth Boswell,97.2,195.04,133.81,,,Single-ply,SBD,M
Boys,109.77,1,Thomas McCowan,Saginaw,103.96,208.65,122.47,208.65,539.77,Single-ply,SBD,M
Boys,109.77,2,Matthew Michaels,Fort Worth Boswell,107.46,204.12,136.08,195.04,535.24,Single-ply,SBD,M
Boys,109.77,3,Marcello Deanda,Azle,104.01,192.78,142.88,188.24,523.9,Single-ply,SBD,M
Boys,109.77,4,Riley Norton,Azle,106.87,181.44,104.33,172.37,458.13,Single-ply,SBD,M
Boys,109.77,5,Kaleb Robinson,Azle,108.45,181.44,83.91,154.22,419.57,Single-ply,SBD,M
Boys,124.74,1,Alex Trejo,Saginaw,119.11,215.46,163.29,226.8,605.55,Single-ply,SBD,M
Boys,124.74,2,Case Mason,Saginaw,120.34,222.26,120.2,199.58,542.04,Single-ply,SBD,M
Boys,124.74,3,Kyler Kavanaugh,Azle,112.49,161.03,83.91,172.37,417.3,Single-ply,SBD,M
Boys,124.74,4,Julian Campa,Fort Worth Boswell,124.06,136.08,81.65,170.1,387.82,Single-ply,SBD,M
Boys,124.74,5,Raul Sifuentes,Saginaw,119.79,111.13,70.31,142.88,324.32,Single-ply,SBD,M
Boys,124.74+,1,Cooper Moorman,Azle,142.16,249.48,158.76,226.8,635.03,Single-ply,SBD,M
Boys,124.74+,2,David Avelar,Azle,126.6,229.06,106.59,204.12,539.77,Single-ply,SBD,M
Boys,124.74+,3,Dorian Evans,Azle,139.93,229.06,111.13,195.04,535.24,Single-ply,SBD,M
Boys,124.74+,4,Ryan Morales,Fort Worth Boswell,129.09,192.78,136.08,185.97,514.83,Single-ply,SBD,M
Boys,124.74+,5,Aidan Tremaine,Fort Worth Boswell,136.35,188.24,117.93,192.78,498.95,Single-ply,SBD,M
