Name,WeightClassKg,Division,Best3SquatKg,Squat2Kg,Squat3Kg,Best3BenchKg,Best3DeadliftKg,TotalKg,Event,Equipment,Sex,BodyweightKg,Place
J. Schmidt,52,Open,131.54,,,77.11,140.61,349.27,SBD,Single-ply,M,,1
B. Foodriil,52,Open,95.25,,,70.31,133.81,299.37,SBD,Single-ply,M,,2
B. Stephens,52,Open,97.52,,,54.43,138.35,290.3,SBD,Single-ply,M,,3
Kipp Mitchell,52,Open,68.03,,,38.53,88.45,195.01,SBD,Single-ply,M,34,4
D. Simpson,52,Open,95.25,,,,,,SBD,Single-ply,M,,DQ
J. Slaven,56,Open,136.08,,,86.18,136.08,358.34,SBD,Single-ply,M,,1
J. Burris,56,Open,104.33,,,70.31,131.54,306.18,SBD,Single-ply,M,,2
Francis Ruettiger,60,Open,199.58,,,127.01,231.33,557.92,SBD,Single-ply,M,,1
B. Polizzano,60,Open,158.76,,,102.06,185.97,446.79,SBD,Single-ply,M,,2
S. Stamper,60,Open,158.76,,,111.13,174.63,444.52,SBD,Single-ply,M,,3
R. Murray,60,Open,163.29,,,95.25,181.44,439.99,SBD,Single-ply,M,,4
S. Diruzza,60,Open,158.76,,,92.99,183.71,435.45,SBD,Single-ply,M,,5
T. Corr,60,Open,108.86,,,104.33,204.12,417.31,SBD,Single-ply,M,,8
D. Keiser,60,Open,147.42,,,90.72,185.97,424.11,SBD,Single-ply,M,,6
J. Pierce,60,Open,145.15,,,92.99,181.44,419.57,SBD,Single-ply,M,,7
K. Martin,60,Open,136.08,,,72.57,174.63,383.29,SBD,Single-ply,M,,9
R. Duford,60,Open,113.4,,,104.33,158.76,376.48,SBD,Single-ply,M,,10
C. Duckworth,60,Open,117.93,,,56.7,124.74,299.37,SBD,Single-ply,M,,11
C. Rybicki,60,Open,206.38,,,104.33,,,SBD,Single-ply,M,,DQ
P. Kacarab,60,Open,,,,,,,SBD,Single-ply,M,,DQ
J. England,60,Open,113.4,,,,,,SBD,Single-ply,M,,DQ
Pat Malone,67.5,Open,210.92,,,113.4,226.8,551.12,SBD,Single-ply,M,,1
L. DeSantis,67.5,Open,195.04,,,124.74,217.72,537.51,SBD,Single-ply,M,,2
Jeff Hallada,67.5,Open,204.12,,,138.35,195.04,537.51,SBD,Single-ply,M,,3
J. Bolin,67.5,Open,199.58,,,138.35,199.58,537.51,SBD,Single-ply,M,,4
Tony Vettraino,67.5,Open,192.78,,,122.47,208.65,523.9,SBD,Single-ply,M,,5
T. Fahey,67.5,Open,185.97,,,113.4,217.72,517.1,SBD,Single-ply,M,,6
Mark Larson,67.5,Open,206.38,,,102.06,201.85,510.29,SBD,Single-ply,M,,7
E. Burkett,67.5,Open,185.97,,,106.59,199.58,492.15,SBD,Single-ply,M,,8
S. Stevens,67.5,Open,174.63,,,88.45,204.12,467.2,SBD,Single-ply,M,,9
D. Sheffield,67.5,Open,158.76,,,92.99,197.31,449.06,SBD,Single-ply,M,,10
K. Minton,67.5,Open,151.95,,,97.52,190.51,439.99,SBD,Single-ply,M,,11
J. Parker,67.5,Open,136.08,,,83.91,167.83,387.82,SBD,Single-ply,M,,12
J. Sodburry,67.5,Open,117.93,,,81.65,158.76,358.34,SBD,Single-ply,M,,13
W. Snyder,67.5,Open,127.01,,,,,,SBD,Single-ply,M,,DQ
Sam Phillipy,75,Open,240.4,,,145.15,244.94,630.49,SBD,Single-ply,M,,1
R. Plunkett,75,Open,192.78,,,124.74,210.92,528.44,SBD,Single-ply,M,,2
Larry Boynton,75,Open,195.04,,,113.4,215.46,523.9,SBD,Single-ply,M,,3
T. Eyariah,75,Open,179.17,,,108.86,229.06,517.1,SBD,Single-ply,M,,4
D. Shultz,75,Open,192.78,,,120.2,199.58,512.56,SBD,Single-ply,M,,5
W. Day,75,Open,172.37,,,113.4,199.58,485.34,SBD,Single-ply,M,,7
G. Eudaly,75,Open,167.83,,,115.67,213.19,496.68,SBD,Single-ply,M,,6
C. Reder,75,Open,158.76,,,108.86,206.38,474,SBD,Single-ply,M,,8
E. Flier,75,Open,138.35,,,120.2,,,SBD,Single-ply,M,,DQ
Bryan Wadie,82.5,Open,324.32,324.32,-335.66,176.9,310.71,811.93,SBD,Single-ply,M,81.19,1
T. Gallagher,82.5,Open,258.55,,,195.04,254.01,707.6,SBD,Single-ply,M,,2
Jeff Orr,82.5,Open,254.01,,,161.03,258.55,673.59,SBD,Single-ply,M,,3
B. Rosa,82.5,Open,235.87,,,172.37,226.8,635.03,SBD,Single-ply,M,,4
J. DiMaggio,82.5,Open,226.8,,,122.47,229.06,578.33,SBD,Single-ply,M,,5
R. Taylor,82.5,Open,217.72,,,140.61,215.46,573.8,SBD,Single-ply,M,,6
K. Pairsh,82.5,Open,183.71,,,136.08,204.12,523.9,SBD,Single-ply,M,,7
G. Galey,82.5,Open,170.1,,,113.4,181.44,464.93,SBD,Single-ply,M,,8
L. Alvey,82.5,Open,136.08,,,99.79,181.44,417.31,SBD,Single-ply,M,,9
P. Hatton,82.5,Open,,,,,,,SBD,Single-ply,M,,DQ
Jamie Logston,90,Open,288.03,,,170.1,267.62,725.75,SBD,Single-ply,M,,1
Dick Zenzen,90,Open,260.82,,,172.37,249.48,682.66,SBD,Single-ply,M,,2
D. McDaniel,90,Open,254.01,,,170.1,240.4,664.51,SBD,Single-ply,M,,3
T. Ickes,90,Open,226.8,,,151.95,238.14,616.89,SBD,Single-ply,M,,4
S. Georgek,90,Open,229.06,,,151.95,229.06,610.08,SBD,Single-ply,M,,5
P. Rupright,90,Open,213.19,,,151.95,229.06,594.21,SBD,Single-ply,M,,6
D. Meylon,90,Open,192.78,,,163.29,235.87,591.94,SBD,Single-ply,M,,7
A. Delong,90,Open,217.72,,,115.67,242.67,576.06,SBD,Single-ply,M,,8
N. Fleeger,90,Open,170.1,,,102.06,192.78,464.93,SBD,Single-ply,M,,9
Kevin Fisher,100,Open,306.18,,,190.51,331.12,827.81,SBD,Single-ply,M,,1
Wayne Hedden,100,Open,303.91,,,192.78,299.37,796.06,SBD,Single-ply,M,,2
P. White,100,Open,285.76,,,188.24,292.57,766.57,SBD,Single-ply,M,,3
R. Zimmerman,100,Open,299.37,,,190.51,267.62,757.5,SBD,Single-ply,M,,4
G. Hammond,100,Open,285.76,,,188.24,265.35,739.36,SBD,Single-ply,M,,5
James Prochaska,100,Open,240.4,,,185.97,288.03,714.41,SBD,Single-ply,M,,6
A. Silver,100,Open,235.87,,,147.42,281.23,664.51,SBD,Single-ply,M,,7
B. Hurt,100,Open,226.8,,,149.69,240.4,616.89,SBD,Single-ply,M,,8
D. Hogan,100,Open,201.85,,,131.54,231.33,564.72,SBD,Single-ply,M,,9
Dennis Reed,100,Open,362.87,,,192.78,,,SBD,Single-ply,M,,DQ
Jim Loftus,110,Open,299.37,,,176.9,272.16,748.43,SBD,Single-ply,M,,1
J. Miller #4,110,Open,256.28,,,170.1,263.08,689.46,SBD,Single-ply,M,,2
J. Dawson,110,Open,235.87,,,140.61,288.03,664.51,SBD,Single-ply,M,,3
H. Mitchell,110,Open,249.48,,,163.29,249.48,662.25,SBD,Single-ply,M,,4
T. Carr,110,Open,240.4,,,115.67,256.28,612.35,SBD,Single-ply,M,,5
D. Henkle,110,Open,181.44,,,156.49,213.19,551.12,SBD,Single-ply,M,,6
G. Logston,125,Open,362.87,,,217.72,299.37,879.97,SBD,Single-ply,M,,1
Phil Contreras,125,Open,326.59,,,226.8,285.76,839.15,SBD,Single-ply,M,,2
P. DiMaggio,125,Open,254.01,,,158.76,249.48,662.25,SBD,Single-ply,M,,3
A. Larsen,125,Open,195.04,,,158.76,235.87,589.67,SBD,Single-ply,M,,4
J. Wood,125,Open,136.08,,,77.11,149.69,362.87,SBD,Single-ply,M,,5
J. Ford,125+,Open,299.37,,,151.95,272.16,723.48,SBD,Single-ply,M,,1
Bob Coyer,125+,Open,210.92,,,138.35,242.67,591.94,SBD,Single-ply,M,,2
D. Simpson,52,Collegiate,95.25,,,,,,SBD,Single-ply,M,,DQ
B. Polizzano,60,Collegiate,158.76,,,102.06,185.97,446.79,SBD,Single-ply,M,,1
D. Keiser,60,Collegiate,147.42,,,90.72,185.97,424.11,SBD,Single-ply,M,,2
C. Rybicki,60,Collegiate,206.38,,,104.33,,,SBD,Single-ply,M,,DQ
P. Kacarab,60,Collegiate,,,,,,,SBD,Single-ply,M,,DQ
Tony Vettraino,67.5,Collegiate,192.78,,,122.47,208.65,523.9,SBD,Single-ply,M,,1
D. Sheffield,67.5,Collegiate,158.76,,,92.99,197.31,449.06,SBD,Single-ply,M,,2
T. Denton,67.5,Collegiate,142.88,,,97.52,161.03,401.43,SBD,Single-ply,M,,3
R. Szanyi,75,Collegiate,181.44,,,129.27,226.8,537.51,SBD,Single-ply,M,,1
T. Evariah,75,Collegiate,179.17,,,108.86,229.06,517.1,SBD,Single-ply,M,,2
G. Eudaly,75,Collegiate,167.83,,,115.67,215.46,498.93,SBD,Single-ply,M,,3
T. Piha,75,Collegiate,167.83,,,117.93,190.51,476.27,SBD,Single-ply,M,,4
M. Walker #5,75,Collegiate,140.61,,,113.4,192.78,446.79,SBD,Single-ply,M,,5
P. Wicker,75,Collegiate,145.15,,,90.72,185.97,421.84,SBD,Single-ply,M,,6
F. Chester,75,Collegiate,147.42,,,104.33,,,SBD,Single-ply,M,,DQ
Bryan Wadie,82.5,Collegiate,324.32,324.32,-335.66,176.9,310.71,811.93,SBD,Single-ply,M,81.19,1
Jeff Orr,82.5,Collegiate,254.01,,,161.03,258.55,673.59,SBD,Single-ply,M,,2
O. Koning,82.5,Collegiate,226.8,,,163.29,244.94,635.03,SBD,Single-ply,M,,3
J. DiMaggio,82.5,Collegiate,226.8,,,122.47,229.06,578.33,SBD,Single-ply,M,,4
J. Sanders,82.5,Collegiate,206.38,,,129.27,217.72,553.38,SBD,Single-ply,M,,5
B. Kushner,82.5,Collegiate,170.1,,,108.86,199.58,478.54,SBD,Single-ply,M,,6
T. Crumb,82.5,Collegiate,147.42,,,115.67,195.04,458.13,SBD,Single-ply,M,,7
P. Hatton,82.5,Collegiate,,,,,,,SBD,Single-ply,M,,DQ
S. Georgek,90,Collegiate,229.06,,,151.95,229.06,610.08,SBD,Single-ply,M,,1
J. Maclead,90,Collegiate,215.46,,,140.61,224.53,580.6,SBD,Single-ply,M,,2
D. Hughes,90,Collegiate,147.42,,,117.93,226.8,492.15,SBD,Single-ply,M,,3
Scott Wagner,90,Collegiate,167.83,,,140.61,181.44,489.88,SBD,Single-ply,M,,4
James Prochaska,100,Collegiate,240.4,,,185.97,288.03,714.41,SBD,Single-ply,M,,1
PJ Meduri,100,Collegiate,238.14,,,158.76,276.69,673.59,SBD,Single-ply,M,,2
A. Silver,100,Collegiate,235.87,,,147.42,281.23,664.51,SBD,Single-ply,M,,3
K. Yohnka,125,Collegiate,204.12,,,102.06,213.19,519.36,SBD,Single-ply,M,,1
